<?xml version="1.0" encoding="UTF-8" standalone="no"?>
<!-- Created with Inkscape (http://www.inkscape.org/) -->
<svg
    xmlns:inkscape="http://www.inkscape.org/namespaces/inkscape"
    xmlns:rdf="http://www.w3.org/1999/02/22-rdf-syntax-ns#"
    xmlns="http://www.w3.org/2000/svg"
    xmlns:sodipodi="http://sodipodi.sourceforge.net/DTD/sodipodi-0.dtd"
    xmlns:ns1="http://sozi.baierouge.fr"
    xmlns:cc="http://creativecommons.org/ns#"
    xmlns:xlink="http://www.w3.org/1999/xlink"
    xmlns:dc="http://purl.org/dc/elements/1.1/"
    id="svg2"
    sodipodi:docname="Hello World Said The Vulcan Moon.svg"
    viewBox="0 0 688.27 759.64"
    version="1.1"
    inkscape:version="0.48.5 r10040"
  >
  <defs
      id="defs4"
    >
    <radialGradient
        id="radialGradient3582"
        xlink:href="#linearGradient878"
        gradientUnits="userSpaceOnUse"
        cy="923.95"
        cx="-324.67"
        gradientTransform="matrix(-1.1081 -1.5274 -.64194 .46571 271.12 -103.84)"
        r="88.203"
    />
    <radialGradient
        id="radialGradient3580"
        xlink:href="#linearGradient878"
        gradientUnits="userSpaceOnUse"
        cy="712.64"
        cx="-180.59"
        gradientTransform="matrix(-.77632 -.022182 -.14608 5.1124 -126.89 -3133.9)"
        r="19.039"
    />
    <radialGradient
        id="radialGradient3578"
        xlink:href="#linearGradient878"
        gradientUnits="userSpaceOnUse"
        cy="682.97"
        cx="-212.04"
        gradientTransform="matrix(-1.9677 -.19403 -.55583 5.6368 -80.184 -3407)"
        r="13.625"
    />
    <radialGradient
        id="radialGradient3576"
        xlink:href="#linearGradient878"
        gradientUnits="userSpaceOnUse"
        cy="793.06"
        cx="-410.96"
        gradientTransform="matrix(-.68073 .30043 .71816 1.6272 -693.05 -506.32)"
        r="53.832"
    />
    <radialGradient
        id="radialGradient3574"
        xlink:href="#linearGradient878"
        gradientUnits="userSpaceOnUse"
        cy="752.59"
        cx="-292.55"
        gradientTransform="matrix(-.71116 .28867 .75067 1.8493 -731.36 -713.97)"
        r="68.699"
    />
    <linearGradient
        id="linearGradient3572"
        y2="785.79"
        xlink:href="#linearGradient1400"
        gradientUnits="userSpaceOnUse"
        x2="-285.05"
        gradientTransform="matrix(-1.2753 -.25908 -.25908 1.2753 -136.47 -442.18)"
        y1="726.53"
        x1="-319.26"
    />
    <radialGradient
        id="radialGradient3570"
        xlink:href="#linearGradient878"
        gradientUnits="userSpaceOnUse"
        cy="923.95"
        cx="-324.67"
        gradientTransform="matrix(1.4253 -1.3087 .55 .59903 -324.52 -74.81)"
        r="88.203"
    />
    <radialGradient
        id="radialGradient3568"
        xlink:href="#linearGradient878"
        gradientUnits="userSpaceOnUse"
        cy="712.64"
        cx="-180.59"
        gradientTransform="matrix(.78464 .13619 -.8969 5.1672 694.01 -3038.4)"
        r="19.039"
    />
    <radialGradient
        id="radialGradient3566"
        xlink:href="#linearGradient878"
        gradientUnits="userSpaceOnUse"
        cy="682.97"
        cx="-212.04"
        gradientTransform="matrix(2.0169 .20672 -.59219 5.7778 702.83 -3322.4)"
        r="13.625"
    />
    <radialGradient
        id="radialGradient3562"
        xlink:href="#linearGradient878"
        gradientUnits="userSpaceOnUse"
        cy="752.59"
        cx="-292.55"
        gradientTransform="matrix(.6557 .43526 -1.1319 1.7051 807.4 -483.26)"
        r="68.699"
    />
    <linearGradient
        id="linearGradient3560"
        y2="785.79"
        xlink:href="#linearGradient1400"
        gradientUnits="userSpaceOnUse"
        x2="-285.05"
        gradientTransform="matrix(1.3344,0,0,1.3344,154.13,-331.6)"
        y1="726.53"
        x1="-319.26"
    />
    <linearGradient
        id="linearGradient1400"
      >
      <stop
          id="stop1401"
          stop-opacity=".67843"
          offset="0"
      />
      <stop
          id="stop1403"
          stop-opacity=".32941"
          offset=".57"
      />
      <stop
          id="stop1402"
          stop-opacity="0"
          offset="1"
      />
    </linearGradient
    >
    <linearGradient
        id="linearGradient878"
      >
      <stop
          id="stop879"
          stop-color="#1f1f1f"
          offset="0"
      />
      <stop
          id="stop881"
          stop-opacity="0"
          offset="1"
      />
    </linearGradient
    >
    <clipPath
        id="clipPath18-1"
      >
      <path
          id="path20-9"
          inkscape:connector-curvature="0"
          d="m0 600h800v-600h-800v600z"
      />
    </clipPath
    >
    <radialGradient
        id="radialGradient4752"
        xlink:href="#linearGradient878"
        gradientUnits="userSpaceOnUse"
        cy="793.06"
        cx="-410.96"
        gradientTransform="matrix(.62272 .44087 -1.0539 1.4886 726.52 -282.42)"
        r="53.832"
        inkscape:collect="always"
    />
  </defs
  >
  <sodipodi:namedview
      id="base"
      fit-margin-left="0"
      inkscape:showpageshadow="false"
      inkscape:zoom="0.35355339"
      borderopacity="1.0"
      inkscape:current-layer="g4802"
      inkscape:cx="-186.55331"
      inkscape:cy="417.53757"
      inkscape:window-maximized="0"
      showgrid="false"
      fit-margin-right="0"
      inkscape:document-units="px"
      bordercolor="#666666"
      inkscape:window-x="0"
      inkscape:window-y="19"
      fit-margin-bottom="0"
      inkscape:window-width="1518"
      inkscape:pageopacity="0.0"
      inkscape:pageshadow="2"
      pagecolor="#ffffff"
      inkscape:window-height="1181"
      fit-margin-top="0"
  />
  <g
      id="layer1"
      inkscape:label="Layer 1"
      inkscape:groupmode="layer"
      transform="translate(-943.46 279.22)"
    >
    <g
        id="g4045"
        transform="matrix(6.8267 0 0 6.8267 -2935.8 -1013.8)"
      >
      <g
          id="g4802"
          transform="matrix(.14648 0 0 .14648 566.85 53.552)"
        >
        <g
            id="g4660"
          >
          <g
              id="g3516"
              transform="translate(135.78 203.58)"
            >
            <path
                id="path3121"
                inkscape:connector-curvature="0"
                d="m211.98 924.58c-1.1-0.26-8.75-2.05-17-3.97-33.66-7.84-64.92-18.71-102.64-35.7l-5.634-2.53-1.701-9.32c-4.582-25.09-11.833-50.01-19.069-65.53-8.811-18.91-19.801-32.85-37.961-48.15-4.95-4.17-15.3-13.51-23-20.77-15.162-14.28-20.4-18.67-33.615-28.13-13.802-9.89-23.135-21.23-27.436-33.35-0.855-2.41-3.814-11.81-6.575-20.88-5.159-16.96-11.335-31.45-16.762-39.34-1.813-2.63-7.854-8.08-14.664-13.22-15.713-11.87-22.743-18.93-24.783-24.92-1.85-5.43-2.74-14-5.77-55.45-2.49-33.96-2.22-51.78 1.07-71.07 1.17-6.88 2.22-17.23 2.33-23l0.21-10.5 4.46-2.25c2.45-1.24 5.83-2.25 7.51-2.25 3.51 0 9.835 3.09 13.639 6.66l2.614 2.45 0.739-3.31c0.407-1.81 1.051-8.37 1.432-14.57 0.852-13.89 1.62-14.98 11.192-15.88 5.463-0.51 7.173-0.26 10.745 1.56 5.617 2.87 11.007 8.42 14.531 14.96 6.256 11.62 7.069 22.45 3.123 41.63-1.661 8.07-2.469 15.27-2.468 22 0 14.96 1.644 22 3.444 14.75 0.375-1.51 4.515-10.63 9.2-20.25 8.59-17.65 10.587-22.85 11.865-30.91 0.968-6.11 4.155-9.1 9.674-9.07 11.552 0.06 20.237 9.85 22.993 25.93 1.5674 9.14 0.1652 17.68-5.1567 31.42-6.1198 15.8-7.0419 20.62-7.0346 36.77 0.0036 7.9-0.5135 21.16-1.149 29.48-1.1357 14.86-1.1157 15.22 1.1725 20.74 1.2803 3.09 2.531 5.41 2.7792 5.16 0.2483-0.25 2.7399 1.55 5.5371 4 2.7971 2.45 11.252 7.61 18.788 11.48 15.749 8.07 24.084 13.97 28.484 20.16 1.766 2.48 4.921 9.91 7.363 17.34 4.735 14.4 10.065 26.79 12.059 28.02 0.973 0.6 1.104 0.33 0.52-1.11-12.39-30.45-17.56-49.5-17.561-64.69 0-11.53 3.148-17.68 11.146-21.79 2.005-1.02 4.277-2.5 5.049-3.27 2.936-2.94 8.526-4.98 14.854-5.43 5.629-0.41 7.371-0.09 12.211 2.2 13.705 6.48 21.825 21.02 37.305 66.77 8.23 24.33 12.46 34.34 17.04 40.35 1.29 1.68 5.84 5.02 10.11 7.42 27.84 15.59 39.84 34.16 41.91 64.89 0.51 7.58 1.35 11.35 3.92 17.64 7.37 18.04 17.05 53.7 21.45 79 6.05 34.72 4.68 67.16-3.54 84-1.99 4.07-4.12 4.98-8.95 3.83zm29.66-32.61-5.19-30.22 1.02-14c2.46-33.67 8.37-69.12 15.51-93 2.82-9.46 3.35-12.97 3.79-25 0.56-15.73 2.05-22.54 7.23-33.16 4.56-9.34 15.06-20.57 25.92-27.72 4.61-3.04 9.36-6.56 10.56-7.82 5.46-5.78 9.42-16.83 17.63-49.27 10.78-42.53 18.89-58.62 32.87-65.17 7.95-3.73 20.16-2.55 25.54 2.46 1.22 1.14 3.47 2.35 5 2.69 4.39 0.96 9.69 6.84 11.42 12.68 3.64 12.26 0.67 34.63-8.58 64.68-1.6 5.19-2.71 9.64-2.46 9.88 1.45 1.46 8.46-19.41 11.67-34.75 0.63-3.03 2.06-7.3 3.17-9.5 3.33-6.6 13.41-15.43 26.8-23.47 15.57-9.36 24.78-17.6 27.15-24.32 1.65-4.68 1.63-5.36-0.75-20.53-1.35-8.62-2.93-21.76-3.52-29.18-1.29-16.59-1.82-18.63-8.45-33-7.51-16.27-8.81-21.37-8.3-32.4 0.81-17.28 9.34-28.6 21.55-28.6 5.47 0 7.84 2.1 9.29 8.23 1.77 7.47 4.94 14.28 12.43 26.71 3.59 5.96 8.27 14.3 10.39 18.53 4.46 8.86 5.16 8.4 5.11-3.3-0.04-9.3-1.75-19.08-5.87-33.6-1.82-6.42-3.09-13.26-3.09-16.61 0-15.54 6.53-29.54 16.82-36.07l24.74 5.75c-5.34 22.34 9.09 24.91 26.5 24.5l10.38 48.08 4.06 104.28-2.4 4.5c-2.62 4.91-10.9 13.49-24.1 24.95-6.93 6.01-9.2 8.74-12.29 14.75-4.98 9.72-8.98 21.96-12.19 37.3-6.96 33.28-11.23 41.07-32.28 58.79-6.58 5.54-16.64 15.16-22.35 21.38-5.72 6.22-17.4 18.51-25.97 27.32-18.23 18.73-23.08 25.11-30.45 40.01-9.41 19.03-15.24 41.39-19.11 73.24-1.8 14.86-1.84 15-4.84 16.74-21.84 12.69-52.13 27.05-76.52 36.26-12.88 4.87-43.18 14.9-50.08 16.58l-2.57 0.63-5.19-30.23z"
            />
            <g
                id="g1680"
                transform="matrix(-.019307 -1.4571 1.4571 -.019307 -781.02 1142)"
              >
              <path
                  id="rect1424"
                  inkscape:connector-curvature="0"
                  style="fill:#85420b"
                  transform="matrix(.17321 .64643 -.64643 .17321 853.07 853.07)"
                  d="m-84.031 500.34c-0.132 0-0.275 0.03-0.407 0.04-0.173 0-0.356-0.01-0.531 0-0.084 0-0.165-0.01-0.25 0-0.083 0-0.166-0.01-0.25 0-5.278 0.44-10.981 3.35-16.621 7.28-12.5 8.69-14.48 25.78-13.97 43.34 0.17 5.96-0.65 14.14-1.91 20.97 3.28 3.54 4.34 7.41 12.47 8.25-9.2 0.02-11.84-1.47-13.47-4.38-2.61 12.17-6.4 24.64-9 35.16v0.03c-0.01 0.02-0.05 0.08-0.06 0.09v0.04c-0.12 0.88-0.25 1.75-0.41 2.62-4.83 26.32 13.19 54.66-0.65 69.03-14.15 14.68-10.14 24.97-27.29 49.75-21.32 30.83-12.97 53.74-42.15 70.22 5.89-2.47 10.82-5.13 20.72-14.03 22.71-20.42 14.52-22.57 34.15-50.69 19.62-28.09 32.46-30.29 46.035-57.97 13.639-27.8 8.666-28.66 12.937-48.4 4.272-19.75 3.626-15.94 5.376-31.41 1.749-15.47 2.697-12.55 2.874-30.87 0.178-18.33-0.855-26.38-0.718-42.57 0.119-14.16 3.564-19.64 3.187-21.65-0.007-0.04-0.021-0.09-0.031-0.13-0.01-0.03-0.049-0.09-0.062-0.12-0.007-0.02-0.024-0.05-0.032-0.06-0.008-0.02-0.022-0.05-0.031-0.07-0.009-0.01-0.022-0.05-0.031-0.06-0.02-0.03-0.071-0.07-0.094-0.09-0.006-0.01-0.025-0.03-0.031-0.04-0.006 0-0.025-0.02-0.031-0.03-0.02-0.01-0.041-0.04-0.063-0.06v-0.03h-0.094c-0.007-0.01-0.024-0.05-0.031-0.06h-0.062c-0.015-0.01-0.048-0.03-0.063-0.03h-0.063c-0.014 0-0.047 0.02-0.062 0.03h-0.094c-0.02 0.01-0.074 0.05-0.094 0.06h-0.031c-0.043 0.02-0.119 0.04-0.156 0.06-0.039 0.03-0.092 0.07-0.125 0.1-2.44 1.63-7.413 11.44-9.156 16.68 1.418-8.07 3.742-14.75 7.937-18.81-2.35-1.51-4.891-2.19-7.562-2.19zm-65.559 22.6c-5.52 0.27-11.11 4.29-16.38 9.75-9.69 10.04-8.79 26.33-5.59 42.69 1.08 5.55 1.63 13.32 1.59 19.9 3.48 2.84 5.13 6.27 12.59 5.75-8.33 1.48-10.93 0.49-12.84-2-5.14 15.69-9.2 45.01-7.12 56.22 0 0.01-0.01 0.02 0 0.03 0.16 1.17-1.1 3.42-3.25 6.47 3.61 3.56 7.79 6.67 12.53 9.59-5.35-1.88-10.06-4.29-14.1-7.43-7.47 10-21.83 26.2-30 40.12-4.66 6.61-3.18 14.04-1.72 21.5-3.56-4.73-5.91-10.25-4.18-18.5-5.17 3.94-9.92 8.8-13.97 15.06-3.06 6.73-5.22 13.28-4.19 19.5-2.24-5.01-1.03-10.83-0.69-16.5-3.04 2.49-6.05 4.98-9.15 10.29-3.68 9.86-3.37 19.46-0.69 30.12-1.47-2.99-2.61-5.92-3.41-8.88-20.31 14.01-38.53 24.98-52.75 30.26 13.67-7.43 31.48-17.69 43.07-28.88-6.58-1.49-12.47 2.42-17.85 7.09 1.31-5.68 5.95-9.12 11.47-13.68l11.44-7.25c0.27-0.12 0.53-0.29 0.72-0.44 0.13-0.11 0.28-0.26 0.37-0.38 0.01-0.01 0.04-0.04 0.07-0.06 0 0 0.05-0.06 0.06-0.06v-0.06c0.05-0.09 0.11-0.22 0.15-0.32 0.01-0.01 0.03-0.04 0.03-0.06 0 0 0.01-0.06 0-0.06 0 0 0.01-0.03 0-0.03 0.01-0.04 0.06-0.12 0.07-0.16v-0.25c-0.01-0.03-0.06-0.09-0.07-0.12 0.01-0.01 0-0.06 0-0.07-0.38-2.22-4.89-4.87-8.37-4.4l-34.16 9.34c-6.64 7.72-10.29 15.98-13.09 24.5 1.97-1.35 4.04-2.43 6.22-3.31 1.75-0.39 3.49-1.06 5.25-1.38 0.18-0.03 0.35-0.06 0.53-0.09 2.07-0.28 4.17-0.03 6.47 1.47-9.17 1.07-15.39 5.39-20.72 10.72-0.01 0.01-0.02 0.01-0.03 0.03-2.43 8.4-4.64 16.95-8.63 25.34-5.51 11.6-13.98 16.44-18.65 18.81 8.99-8.58 19.18-26.52 25.18-43.12 8.62-23.81 4.19-22.71 25.66-44.5 16.66-16.91 27.38-37.83 35.69-60.62 7.37-20.23 0.02-23.24-3.09-28.29-1.81-2.94-3.45-5.25-7.41-7.75-7.28-3.96-18.04-9.25-32.91 5.88-20.63 21-26.46 36.02-49.53 73.03s-41.05 14.34-44.72 72.31c-7.45-9.34-3.27-34.32-1.15-38.09-9.75-1.12-13.72 23.4-10.88 35.12-3.56-8.74-4.83-19.18-1.59-28.9-4.71 4.88-11.98 27.23-17.94 46-1.41 4.43-3.18 15.49 3.66 32.53-0.01 0-0.04 0.02-0.07 0.03-0.02 0.01-0.08 0.06-0.09 0.06-0.01 0.01-0.08 0.03-0.09 0.03h-0.04c-0.01 0.01-0.08 0.03-0.09 0.04 0 0-0.02-0.01-0.03 0-0.02-0.01-0.08 0-0.09 0s-0.03-0.01-0.03 0c-0.01 0-0.03-0.01-0.04 0-0.01-0.01-0.08-0.03-0.09-0.04h-0.03c-2.81-0.66-9.71-11.87-9.44-25.56-17.07 10.14-36.31 107.26-50 157.47 42.83-0.01 84.44-5.22 124.25-15.03 10.41-20.65 23.32-44.12 40.19-71.97 25.67-42.37 46-38.64 80.87-61.25 7.83-5.07 13.82-8.49 18.63-10.97v-0.03c-4.76 1.68-10.17 3.23-16.28 4.75 18.72-5.86 26.49-12.17 35.12-18.44 10.36-7.52 9.51-10.26 22.47-39.56 5.25-11.86 10.03-20.74 14.06-27.87 6.5-11.51 11.15-27.52 17.13-35.82 17.2-23.89 13.84-29.02 10.94-47.22-2.18-13.63-2.03-19.04-1.07-29.46 1.32-14.34 0.94-13.15-1.25-31.29-2-16.67-5.83-22.62-8.25-37.78-2.24-14.09 0.32-19.61-0.78-21.06-0.03-0.03-0.09-0.1-0.12-0.13-0.02-0.01-0.08-0.04-0.1-0.06-0.01-0.01-0.08-0.05-0.09-0.06s-0.05-0.02-0.06-0.03c-0.01 0-0.06 0.02-0.06 0.03h-0.04c0-0.01-0.02-0.02-0.03-0.03h-0.06c-0.01 0.01-0.05 0.02-0.06 0.03h-0.1s-0.02 0.06-0.03 0.06c0 0.01-0.06 0.03-0.06 0.03-0.01 0.01-0.05 0.03-0.06 0.03-0.02 0.01-0.08 0.06-0.1 0.07-1.93 1.66-4.92 12.19-5.59 17.37-0.04-7.89 1.01-14.57 4.13-19.06-1.81-0.82-3.63-1.15-5.47-1.06zm89.434 7.18c-2.815 0.18-6.107 1.3-10.188 3.54-1.337 0.73-2.586 1.64-3.781 2.68l-0.375 0.32c1.041 16.18 3.363 37.64-1.219 62-7.4 39.33-8.164 59.71-13.437 71.56-6.148 13.82-9.883 23.22-25.564 39.9 13.55-6.33 26.307-12.06 30.939-17.93 7.112-9.02 4.519-15.82 16.469-50.03 5.62-16.1 4.395-13.07 7.187-25.91s3.378-10.32 5.094-25.69 1.532-22.24 3.031-35.81c1.418-12.84 5.214-16.86 4.406-18.31-0.003-0.01-0.027-0.03-0.031-0.03-0.011-0.02-0.019-0.05-0.031-0.07-0.028-0.03-0.092-0.09-0.125-0.12-0.004-0.01-0.027-0.03-0.031-0.03h-0.094c-0.004-0.01-0.027-0.03-0.032-0.03h-0.25c-0.003 0-0.058 0.02-0.062 0.03h-0.031c-0.002 0-7.334 8.95-9.344 13.37 1.883-6.68 4.43-12.1 8.313-15.15-3.375-2.69-6.524-4.45-10.594-4.29-0.09 0.01-0.159 0-0.25 0zm-230.65 112.29c0.04-0.01 0.08 0 0.12 0h0.13c0.03-0.01 0.09 0 0.12 0h0.03c0.15-0.01 0.32 0 0.47 0 8.24-0.19 21.23 9.22 29.25 17.25-10.45-9.5-29.38-20.74-35-12.1-2.86 4.4-6.57 9.37-8.28 15.03 1.56-6.38 5.15-12.01 8.03-16.9 1.01-1.71 2.48-2.7 4.25-3.1 0.28-0.06 0.58-0.14 0.88-0.18zm-13.35 20.81c0.01-0.01 0.03 0.01 0.04 0-0.01 0.02-0.03 0.01-0.04 0.03 0.01 0 0-0.03 0-0.03zm113.88 2.06c-2.12 1.29-4.3 2.61-6.6 3.88-13.58 7.49-28.03 7.09-42.81 14.84-7.91 4.14-10.12 7.09-13.34 9.97 0 0-0.02 0.05-0.03 0.06-3.2 6.61-7.24 13.34-12.03 21.38-9.64 16.16-10.41 14.16-18.47 21.71l22.47-5c4.18-0.64 8.23 1.09 8.81 3.72l0.59 1.91c0.24-1.62 0.48-2.91 1-4.56 2.7-8.45 16.75-17.28 16.75-17.28 5.67-7.14 11.57-13 17.94-15.72 1.46-1.36 17.75-23.72 25.72-34.91zm-113.19 2.1c0-0.01 0.03 0 0.03 0 0.02-0.01 0.05-0.01 0.06 0 0.01-0.01 0.03 0 0.04 0 0.03-0.01 0.06-0.01 0.09 0h0.19c11.82-0.25 31.2 13.79 33.68 19.71 0.01 0.01 0 0.03 0 0.03 0.02 0.04 0.03 0.07 0.04 0.1 0.11 0.33 0.13 0.71 0.15 1.09h0.07c4.14-2.72 7.71-6.62 10.24-9.43 1.96-2.17 4.77-5.77 5.26-8.76-0.09 3.38-3.01 7.66-5.1 10.19-4.52 5.49-12.26 14.79-21.03 13.5-9.54-1.39-19.72-8.03-23.44-17.22-0.03-0.07-0.06-0.14-0.09-0.21 0.03 0.07 0.06 0.14 0.09 0.21 3.85 8.06 13.83 13.69 23.13 14.85 3.61 0.44 7.05-0.74 10.18-2.66-4.53-6.81-22.4-19.46-34.9-20.78 0.01-0.15 0.02-0.32 0.03-0.47 0.36-0.05 0.75-0.1 1.13-0.12h0.09c0-0.01 0.03 0 0.03 0 0-0.01 0.03-0.03 0.03-0.03zm-32 54.9c6.31 8.4 24.25 18 33.47 13.91 3.1-1.38 5.15-1.74 6.09-1.5 0.04 0.01 0.1 0.02 0.13 0.03 0.01 0.01 0.08 0.02 0.09 0.03h0.03c0.02 0.01 0.08 0.05 0.1 0.06 0 0.01 0.02 0.03 0.03 0.03 0.01 0.01 0.02 0.03 0.03 0.04 0.01 0 0.06 0.05 0.06 0.06 0.01 0.01 0.03 0.02 0.03 0.03 0.01 0.02 0.03 0.08 0.03 0.09 0.01 0.02 0.06 0.05 0.07 0.06v0.32c-0.01 0.01-0.06 0.05-0.07 0.06 0.01 0.01 0 0.08 0 0.09-0.01 0.03-0.02 0.08-0.03 0.1-0.54 1.1-3.11 2.84-7.71 4.15-12.33 3.51-27.03-9.37-32.35-17.56zm2.66 11.41c5.89 5.33 18.47 11.3 24.59 9.53 2.43-0.7 4.04-0.7 4.66-0.41 0.01 0.01 0.05 0.03 0.06 0.03 0 0.01 0.03 0.03 0.03 0.04 0 0 0.03 0.02 0.03 0.03 0.01 0 0.03 0.02 0.03 0.03 0.01 0.01 0.03 0.08 0.03 0.09 0.01 0.02 0.06 0.05 0.07 0.06v0.13c-0.02 0.04-0.08 0.15-0.1 0.19-0.39 0.63-2.2 1.51-5.43 2-8.25 1.24-18.89-6.34-23.97-11.72zm81.31 14.47c-0.01 0-0.03 0.02-0.03 0.03h-0.13c-0.04 0-0.11-0.01-0.15 0h-0.07l-0.03 0.03c-5.85 1.38-9.78 3.88-12.78 6.9 5.12-3.1 9.44-3.87 13.44-3.81-0.13-1.05-0.15-2.09-0.19-3.15h-0.06z"
              />
              <path
                  id="path5793"
                  inkscape:connector-curvature="0"
                  style="fill-rule:evenodd"
                  transform="matrix(.17321 .64643 -.64643 .17321 853.07 853.07)"
                  d="m-190.27 665.29c-2.12 1.29-4.3 2.61-6.59 3.88-13.59 7.5-28.05 7.1-42.83 14.84-7.91 4.15-10.13 7.09-13.34 9.97-0.01 0-0.04 0.04-0.05 0.04-3.19 6.61-7.22 13.36-12.01 21.39-9.63 16.17-10.4 14.17-18.47 21.73l22.48-5.01c4.18-0.64 8.22 1.08 8.8 3.72l0.41 2.46c0.24-1.7 0.62-3.4 1.17-5.13 2.7-8.45 16.76-17.27 16.76-17.27 5.67-7.13 11.56-13 17.94-15.72 1.45-1.36 17.75-23.71 25.73-34.9zm-8.05 6.84c-5.82 7.51-17.67 22.51-18.89 23.64-4.15 1.67-8.02 5-11.76 9.13-0.01 0.01-0.04 0.04-0.04 0.05-0.01 0-0.04-0.01-0.05 0 0 0 0.01 0.04 0 0.04-17.87 13.02-32.89 20.15-20.47-3.96v-0.05c0.11-0.17 0.22-0.33 0.33-0.5v-0.08h0.04l0.21-0.33c1.82-2.89 3.44-5.61 4.84-8.26 2.36-1.96 3.99-3.92 9.76-6.75 10.78-5.31 21.32-5.17 31.23-10.3 1.67-0.87 3.25-1.75 4.8-2.63z"
              />
              <path
                  id="path6683"
                  inkscape:connector-curvature="0"
                  style="fill-rule:evenodd;fill:url(#linearGradient3560)"
                  transform="matrix(.17321 .64643 -.64643 .17321 853.07 853.07)"
                  d="m-198.34 672.14c-1.54 0.88-3.13 1.75-4.8 2.61-9.91 5.13-20.43 4.98-31.21 10.29-5.77 2.83-7.39 4.83-9.75 6.79-1.4 2.65-3.04 5.36-4.86 8.25-0.07 0.1-0.14 0.21-0.21 0.32-0.02 0.02-0.02 0.06-0.04 0.08-0.1 0.17-0.2 0.33-0.31 0.5-0.01 0.01 0.01 0.04 0 0.05-12.41 24.11 2.57 16.96 20.45 3.94 0.02-0.02 0.06-0.03 0.08-0.05 3.74-4.13 7.62-7.47 11.77-9.14 1.06-0.93 13.02-16.06 18.88-23.64z"
              />
              <path
                  id="path5717"
                  inkscape:connector-curvature="0"
                  style="fill-rule:evenodd"
                  transform="matrix(.17321 .64643 -.64643 .17321 853.07 853.07)"
                  d="m-278.72 632.19c-0.42 0-0.83 0.04-1.25 0.06-26.62 1.45-48.27 50.65-62.87 74.56-18.78 30.75-20.97 23.03-40.97 31.44-29.25 12.3-38.46 37.96-43.78 61.06-16.59 21.75-42.79 79.34-51.5 110.44l-6.22 58.97c2.5 0.03 5.02 0.03 7.53 0.03 4.06 0 8.11-0.03 12.16-0.13 0.11-18.66 16.85-144.83 37.9-157.34-0.29 14.69 7.65 26.53 9.97 25.53 0.05-0.02 0.12-0.06 0.16-0.09-6.84-17.04-5.04-28.07-3.63-32.5 6.05-19.06 13.36-41.8 18.06-46.19-3.45 10.18-2.12 21.15 1.82 30.16-3.42-11.18 0.38-37.38 10.46-36.22-2.11 3.77-6.22 28.72 1.22 38.06 3.67-57.97 21.59-35.27 44.66-72.28s28.9-52.03 49.53-73.03c17.82-18.14 29.73-6.89 36.85-3.81-6.97-6.63-13.78-8.78-20.1-8.72z"
              />
              <path
                  id="path5719"
                  inkscape:connector-curvature="0"
                  style="fill-rule:evenodd"
                  transform="matrix(.17321 .64643 -.64643 .17321 853.07 853.07)"
                  d="m-338.55 823.13c8.99-8.58 19.16-26.54 25.17-43.14 8.62-23.81 4.18-22.69 25.65-44.48 16.66-16.9 27.41-37.85 35.71-60.65 8.31-22.79-2.12-23.7-4.06-30.32 5.98 3.27 10.77 10.84 8.96 21.14-3.34 19.09-11.12 32.03-23.14 51.79-12.02 19.75-11.39 14.65-23.35 27.03-17.38 17.99-16.57 39.36-26.3 59.81-5.51 11.6-13.97 16.45-18.64 18.82z"
              />
              <path
                  id="path5722"
                  inkscape:connector-curvature="0"
                  style="fill-rule:evenodd"
                  transform="matrix(.17321 .64643 -.64643 .17321 853.07 853.07)"
                  d="m-337.41 718.5c1.89 6.9 19.77 25.47 34.28 21.34 10.08-2.87 10.37-7.76 1.15-3.66-10.64 4.72-32.82-8.82-35.43-17.68z"
              />
              <path
                  id="path5726"
                  inkscape:connector-curvature="0"
                  style="fill-rule:evenodd"
                  transform="matrix(.17321 .64643 -.64643 .17321 853.07 853.07)"
                  d="m-335.6 730.07c1.85 4.35 16.31 16.9 26.78 15.33 7.28-1.09 7.17-4.06 0.61-2.16-7.56 2.18-24.87-7.57-27.39-13.17z"
              />
              <path
                  id="path5730"
                  inkscape:connector-curvature="0"
                  style="fill-rule:evenodd"
                  transform="matrix(.17321 .64643 -.64643 .17321 853.07 853.07)"
                  d="m-304.74 667.55c-0.01 0.15-0.02 0.32-0.03 0.47 12.55 1.32 30.47 14.02 34.92 20.81 0.24-0.14 0.47-0.31 0.7-0.46v-0.04c-0.02-0.44-0.08-0.86-0.24-1.24-2.61-6.2-23.79-21.3-35.35-19.54z"
              />
              <path
                  id="path5735"
                  inkscape:connector-curvature="0"
                  style="fill-rule:evenodd"
                  transform="matrix(.17321 .64643 -.64643 .17321 853.07 853.07)"
                  d="m-291.69 642.62c-1.77 0.4-3.23 1.38-4.24 3.09-3.6 6.1-8.37 13.25-8.83 21.72 0.58-7.71 5.42-14.26 9.06-19.86 6.18-9.5 28.38 5.06 37.8 14.87-7.95-9.02-24.87-21.81-33.79-19.82zm-12.65 30.56c2.29 10.94 13.87 19.05 24.56 20.62 8.77 1.28 16.54-8 21.07-13.49 2.26-2.74 5.57-7.58 5.1-11.05 0 3.12-3.13 7.22-5.28 9.6-4.58 5.08-12.43 13.66-21.18 12.58-10.55-1.31-21.92-8.42-24.27-18.26z"
              />
              <path
                  id="path5741"
                  inkscape:connector-curvature="0"
                  style="fill-rule:evenodd"
                  transform="matrix(.17321 .64643 -.64643 .17321 853.07 853.07)"
                  d="m-87.562 496.72c-0.483 0.02-0.976 0.09-1.469 0.16-9.525 1.31-20.529 10.27-25.909 21.78-7.64 16.35-4.34 23.97-4.94 38.9-0.38 9.47-2.99 24.17-6.46 30.32-0.66 1.15-1.29 2.27-1.91 3.37 0.86 6.83 1.07 13.7 0.16 20.25 2.59-10.62 6.47-23.33 9.12-35.69 1.66 2.97 4.41 4.49 14.13 4.41-8.67-0.72-9.77-4.62-13.13-8.25 1.26-6.83 2.11-15.01 1.94-20.97-0.51-17.56 1.44-34.65 13.94-43.34 9.049-6.3 18.282-9.81 25.621-5.1-4.195 4.06-6.519 10.71-7.937 18.78 1.743-5.24 6.685-15.05 9.125-16.68 0.033-0.03 0.085-0.04 0.125-0.07 0.006 0 0.026-0.02 0.031-0.03 0.005 0 0.025 0.01 0.031 0 0.042-0.01 0.095-0.05 0.125-0.06h0.031c0.031-0.02 0.073-0.06 0.094-0.06h0.219c0.019 0 0.047 0.02 0.063 0.03 0.024 0.01 0.07 0.02 0.093 0.03h0.063c0.007 0 0.026 0.03 0.031 0.03 0.029 0.02 0.068 0.04 0.094 0.06 0.006 0.01 0.025 0.03 0.031 0.03 0.023 0.03 0.073 0.07 0.094 0.1 0.02 0.02 0.045 0.06 0.062 0.09 0.008 0.02 0.024 0.05 0.032 0.07 0.028 0.05 0.075 0.15 0.093 0.21 0.487 1.95-3.035 7.4-3.156 21.75-0.136 16.19 0.865 24.28 0.687 42.6-0.177 18.32-1.125 15.37-2.874 30.84-1.75 15.47-1.104 11.66-5.376 31.41-4.271 19.74 0.734 20.6-12.906 48.4-13.576 27.68-26.416 29.88-46.026 57.97-19.64 28.12-11.45 30.27-34.16 50.69-9.9 8.9-14.89 11.53-20.78 14-0.03 0.01-0.07 0.05-0.1 0.06-0.05 0.03-0.1 0.04-0.15 0.07-4.13 2.3-9.04 4.53-14.85 6.59l-0.15 0.06c-4.82 2.48-10.77 5.9-18.6 10.97-34.87 22.61-55.2 18.88-80.87 61.25-16.87 27.84-29.75 51.32-40.16 71.97 3.39-0.84 6.76-1.69 10.13-2.6 9.32-23.21 20.01-48.47 34.72-68.43 18.24-24.75 35.93-34.84 46.03-39.88 26.98-13.47 36.2-24.94 66.47-37.53 45.65-18.98 35.39-50.23 72.47-86.16 23.4-22.67 27.292-32.78 34.464-48.9 5.273-11.85 6.037-32.26 13.437-71.6 6.862-36.46-1.728-66.46 1.625-81.9 2.862-13.17 4.788-15.32-8.531-19.41-1.554-0.47-3.213-0.68-4.937-0.59z"
              />
              <path
                  id="path5753"
                  inkscape:connector-curvature="0"
                  style="fill-rule:evenodd"
                  transform="matrix(.17321 .64643 -.64643 .17321 853.07 853.07)"
                  d="m-62.052 528.42c-3.963 0.75-8.282 3.02-12.18 6.16 0.035 0.59 0.053 1.16 0.091 1.76 1.195-1.05 2.448-1.96 3.785-2.7 10.173-5.58 15.26-3.82 21.019 0.77-3.901 3.07-6.443 8.5-8.329 15.23 1.941-4.38 7.276-12.77 9.345-13.47 0.018 0 0.066 0 0.083-0.01 0.017 0 0.066 0 0.083-0.01h0.041c0.008 0 0.034-0.01 0.041-0.01 0.016 0 0.069-0.01 0.083-0.01 0.022 0.01 0.068 0.03 0.088 0.03 0.02 0.01 0.07 0.02 0.088 0.04 0.012 0 0.035 0.02 0.046 0.03 0.034 0.03 0.071 0.08 0.099 0.12 1.057 1.36-2.873 5.24-4.326 18.39-1.499 13.57-1.336 20.47-3.052 35.84s-2.273 12.83-5.065 25.66c-2.792 12.84-1.56 9.8-7.181 25.89-11.95 34.22-9.352 41.05-16.464 50.06-4.632 5.87-17.383 11.61-30.933 17.94-2.53 2.69-5.38 5.55-8.6 8.67 4.51-2.43 8.89-4.53 13.1-6.24 8.14-3.32 22.579-11.31 26.586-15.39 8.532-8.68 9.426-24.46 26.633-82.03 8.969-30 4.991-55.8 8.407-68.68 3.481-13.13 4.589-11.02-5.499-16.97-2.262-1.34-5.019-1.64-7.989-1.07z"
              />
              <path
                  id="path5758"
                  inkscape:connector-curvature="0"
                  style="fill-rule:evenodd"
                  transform="matrix(.17321 .64643 -.64643 .17321 853.07 853.07)"
                  d="m-154.3 520.1c-8.77 1.67-18.17 12.38-21.34 24.83-4.2 16.47-0.08 23.12 1.73 37.18 1.15 8.91 1.16 14.41-0.59 20.74-4.33 15.71-7.79 50.81-8.05 52.85v0.04c-0.98 1.99-29.64 43.09-31.41 44.72-6.49 2.91-12.58 9.27-18.48 17.03 0 0-14.41 9.51-17.35 18.74-0.6 1.89-1.04 3.76-1.32 5.62l-0.34-2.73c-0.52-2.89-4.55-4.78-8.79-4.12l-30.75 6.86c-0.8 0.79-1.66 1.65-2.61 2.64-0.8 0.83-1.57 1.66-2.3 2.51l34.14-9.35c3.48-0.46 8.02 2.2 8.41 4.43 0.01 0.05 0.02 0.14 0.02 0.21 0 0.01 0.01 0.03 0.01 0.04 0 0.04-0.02 0.13-0.02 0.17-0.01 0.04-0.02 0.12-0.02 0.17-0.04 0.16-0.11 0.34-0.2 0.48 0 0.02-0.02 0.04-0.03 0.05-0.23 0.34-0.62 0.69-1.19 0.95l-11.41 7.25c-5.53 4.56-10.2 8.01-11.51 13.69 5.38-4.68 11.28-8.61 17.86-7.13-11.59 11.19-29.4 21.51-43.06 28.94 14.21-5.28 32.41-16.29 52.73-30.3 0.82 3.04 2 6.07 3.52 9.15-2.74-10.76-3.13-20.42 0.58-30.37 3.1-5.3 6.14-7.81 9.19-10.29-0.36 5.88-1.8 12.03 0.82 17.16-1.27-6.39 0.91-13.22 4.06-20.16 4.06-6.27 8.77-11.15 13.94-15.08-1.73 8.24 0.62 13.78 4.18 18.51-1.47-7.45-2.95-14.9 1.71-21.51 8.17-13.92 22.57-30.1 30.05-40.1 4.03 3.14 8.71 5.54 14.06 7.42-4.74-2.92-8.91-6.02-12.52-9.58 2.18-3.11 3.44-5.39 3.22-6.54-2.07-11.21 2-40.48 7.14-56.17 1.92 2.51 4.55 3.49 13.02 1.96-7.63 0.58-9.26-2.87-12.77-5.73 0.04-6.59-0.49-14.34-1.58-19.89-3.19-16.36-4.12-32.67 5.57-42.71 7.02-7.27 14.64-11.96 21.87-8.67-3.11 4.5-4.15 11.15-4.12 19.04 0.67-5.18 3.65-15.7 5.59-17.37 0.01-0.01 0.06-0.04 0.07-0.05 0.02-0.01 0.07-0.04 0.08-0.05 0.02-0.01 0.06-0.04 0.08-0.05 0.01-0.01 0.03-0.01 0.04-0.01h0.04c0.02-0.01 0.07-0.05 0.08-0.06h0.04c0.01 0.01 0.04 0.03 0.05 0.04l0.04-0.01h0.04c0.02 0 0.07 0.02 0.09 0.03 1.83 0.93-1.34 6.13 1.07 21.29 2.42 15.17 6.28 21.13 8.29 37.8 2.18 18.14 2.57 16.94 1.25 31.28-0.95 10.42-1.14 15.82 1.04 29.45 2.9 18.19 6.26 23.34-10.93 47.23-5.98 8.3-10.64 24.31-17.14 35.82-4.03 7.14-8.83 15.97-14.08 27.83-12.96 29.3-12.11 32.06-22.46 39.58-8.98 6.52-17.04 13.02-37.44 19.08 69.82-16.66 48.85-43.06 76.01-82.33 17.15-24.79 13.12-35.08 27.26-49.76 13.84-14.36-4.15-42.67 0.68-68.99 5.12-27.88-11.88-62-11.4-76.95 0.42-12.77 1.9-15.02-10.52-16.81-1.17-0.17-2.39-0.18-3.61 0.02-0.1 0.02-0.22 0.02-0.33 0.04zm-97.62 228.11c0.14-0.03 0.31-0.02 0.45-0.05 0.04 1.06 0.09 2.11 0.22 3.16-4.02-0.06-8.38 0.7-13.55 3.86 3-3.06 6.97-5.57 12.88-6.97zm-45.6 18.62c-1.76 0.31-3.51 0.97-5.26 1.36-2.19 0.89-4.28 1.98-6.26 3.34v0.04c-0.8 2.44-1.52 4.9-2.24 7.38 5.34-5.35 11.58-9.69 20.77-10.76-2.29-1.5-4.4-1.71-6.48-1.43-0.18 0.03-0.35 0.04-0.53 0.07z"
              />
              <path
                  id="path10809"
                  inkscape:connector-curvature="0"
                  style="opacity:.70098;fill:url(#radialGradient3562)"
                  transform="matrix(.17321 .64643 -.64643 .17321 853.07 853.07)"
                  d="m-161.67 528.64c-1.45 1.21-2.88 2.58-4.29 4.04-9.7 10.04-8.79 26.35-5.59 42.7 1.08 5.56 1.62 13.31 1.58 19.89 3.48 2.84 5.13 6.28 12.6 5.76-8.34 1.48-10.94 0.49-12.85-2-5.13 15.69-9.2 45-7.13 56.21 0.22 1.15-1.06 3.4-3.25 6.5 3.61 3.57 7.81 6.67 12.55 9.6-5.35-1.89-10.06-4.28-14.09-7.43-7.48 10-21.86 26.2-30.03 40.12-4.66 6.61-3.18 14.06-1.71 21.52-3.56-4.74-5.9-10.27-4.17-18.52-5.16 3.94-9.91 8.79-13.97 15.06-3.1 6.83-5.27 13.54-4.13 19.84-2.42-5.07-1.1-11.07-0.75-16.84-3.04 2.48-6.07 4.99-9.17 10.3-3.68 9.86-3.35 19.45-0.67 30.11-1.47-3-2.62-5.93-3.42-8.89-20.31 14.01-38.54 25.01-52.75 30.28 13.66-7.43 31.49-17.71 43.08-28.9-6.58-1.49-12.47 2.42-17.85 7.09 1.31-5.68 5.95-9.11 11.47-13.68l11.42-7.26c0.27-0.11 0.52-0.26 0.71-0.41 0.14-0.11 0.28-0.26 0.38-0.38 0.01-0.01 0.06-0.07 0.08-0.08l0.04-0.04v-0.09c0.06-0.08 0.13-0.19 0.17-0.29 0.01-0.02 0.04-0.06 0.04-0.08 0.01-0.01 0-0.03 0-0.04v-0.04c0.01-0.04 0.04-0.13 0.04-0.17 0.01-0.04 0-0.13 0-0.17v-0.04c0-0.01 0.01-0.03 0-0.04 0-0.04-0.03-0.09-0.04-0.13v-0.04c-0.39-2.23-4.9-4.88-8.38-4.42l-34.15 9.34c-6.65 7.72-10.29 16-13.1 24.52 1.98-1.35 4.04-2.46 6.22-3.33 1.74-0.4 3.49-1.07 5.25-1.38 0.18-0.03 0.36-0.06 0.54-0.08 2.08-0.29 4.17-0.04 6.47 1.46-9.18 1.06-15.39 5.39-20.73 10.71-0.01 0.02-0.03 0.03-0.04 0.04-2.43 8.41-4.64 16.97-8.63 25.36-2.32 4.87-5.15 8.54-8.01 11.34 58.73 9.8 133.25-52.16 166.93-139.07 22.9-59.11 21.07-114.7-0.67-147.95z"
              />
              <path
                  id="path11749"
                  inkscape:connector-curvature="0"
                  style="opacity:.45588;fill:url(#radialGradient4752)"
                  transform="matrix(.17321 .64643 -.64643 .17321 853.07 853.07)"
                  d="m-278.89 634.85c-4.83 0.76-10.32 3.54-16.55 9.88-20.63 21-26.47 36.01-49.54 73.02-23.08 37.01-41.04 14.33-44.71 72.31-7.44-9.35-3.28-34.3-1.16-38.08-9.93-1.13-13.82 24.24-10.68 35.7-3.75-8.88-5.06-19.61-1.71-29.57-4.7 4.65-12.01 27.17-18.01 46.08-0.81 2.55-1.74 7.28-1.09 14.06 35.17-8.21 72.53-35.38 101.08-75.82-5.33-2.78-10.14-6.9-12.67-9.92 2.81 3.01 8.18 6.44 13.55 8.67 0.81-1.16 1.58-2.32 2.38-3.5-8.2-4.03-15.43-11.59-18.27-16.64 3.26 5.25 11.63 11.29 19.85 14.26 2.61-3.97 5.12-8.05 7.55-12.26 6.49-11.23 11.94-22.66 16.39-34.07-5.27-3.37-9.57-8.26-11.35-14.01 1.91 5.29 6.45 9.69 11.89 12.64 1.68-4.38 3.21-8.73 4.59-13.1-5.83-3.34-12.11-5.94-17.43-6.5 0-0.15 0.03-0.31 0.04-0.46 0.36-0.05 0.74-0.1 1.12-0.12 4.83-0.3 11.04 1.96 16.85 5.12 2.67-8.73 4.74-17.43 6.21-25.93-6.52-2.73-12.4-3.25-15.13 0.96-3.31 5.09-7.65 10.94-8.84 17.76 1.04-7.55 5.29-14.05 8.59-19.64 1.01-1.71 2.48-2.69 4.25-3.09 0.56-0.12 1.14-0.19 1.75-0.2 2.8-0.07 6.15 0.95 9.68 2.66 0.56-3.43 1-6.84 1.37-10.21z"
              />
              <path
                  id="path11747"
                  inkscape:connector-curvature="0"
                  style="opacity:.70098;fill-opacity:.59375;fill:#1dffff"
                  transform="matrix(.17321 .64643 -.64643 .17321 853.07 853.07)"
                  d="m-304.62 665.91c-0.01 0.12-0.02 0.23-0.04 0.34 0.01-0.11 0.03-0.22 0.04-0.34z"
              />
              <path
                  id="path11745"
                  inkscape:connector-curvature="0"
                  style="opacity:.70098;fill-opacity:.59375;fill:#1dffff"
                  transform="matrix(.17321 .64643 -.64643 .17321 853.07 853.07)"
                  d="m-303.91 674.76c0.02 0.05 0.02 0.1 0.04 0.16-0.02-0.06-0.02-0.1-0.04-0.16z"
              />
              <path
                  id="path11743"
                  inkscape:connector-curvature="0"
                  style="opacity:.70098;fill-opacity:.59375;fill:#1dffff"
                  transform="matrix(.17321 .64643 -.64643 .17321 853.07 853.07)"
                  d="m-336.6 720.42c0.02 0.03 0.02 0.05 0.04 0.08-0.01-0.03-0.03-0.06-0.04-0.08z"
              />
              <path
                  id="path13548"
                  inkscape:connector-curvature="0"
                  style="opacity:.45588;fill:url(#radialGradient3566)"
                  transform="matrix(.17321 .64643 -.64643 .17321 853.07 853.07)"
                  d="m-97.158 504.53c-1.635 0.93-3.282 1.99-4.922 3.13-12.5 8.69-14.48 25.77-13.97 43.33 0.17 5.96-0.66 14.14-1.92 20.97 3.33 3.6 4.41 7.5 12.89 8.26-9.55 0.06-12.24-1.43-13.89-4.38-2.61 12.16-6.41 24.64-9 35.16-0.01 0 0 0.03 0 0.04-0.01 0.02-0.04 0.05-0.05 0.08v0.04c-0.11 0.88-0.25 1.76-0.41 2.63-2.58 14.03 1.34 28.62 3.46 41.37 13.46-18.97 24.21-45.92 29.188-76.69 4.401-27.2 3.567-52.96-1.376-73.94z"
              />
              <path
                  id="path14477"
                  inkscape:connector-curvature="0"
                  style="opacity:.45588;fill:url(#radialGradient3568)"
                  transform="matrix(.17321 .64643 -.64643 .17321 853.07 853.07)"
                  d="m-65.049 531.22c-0.069 0.03-0.138 0.06-0.208 0.09-0.082 0.03-0.168 0.05-0.25 0.08-0.102 0.04-0.189 0.08-0.292 0.12-0.012 0.01-0.03 0-0.042 0-0.039 0.02-0.085 0.03-0.125 0.05-0.056 0.02-0.11 0.06-0.167 0.08-0.052 0.02-0.114 0.02-0.167 0.04-0.016 0.01-0.025 0.04-0.041 0.04-0.033 0.02-0.051 0.03-0.084 0.04-0.012 0.01-0.029 0-0.041 0-0.041 0.02-0.085 0.03-0.125 0.05-0.169 0.07-0.329 0.13-0.501 0.2-0.108 0.05-0.224 0.12-0.333 0.17-0.096 0.04-0.196 0.08-0.292 0.13-0.037 0.01-0.089 0.02-0.125 0.04-0.017 0.01-0.025 0.03-0.042 0.04-0.028 0.01-0.056 0.03-0.084 0.04-0.255 0.12-0.529 0.25-0.792 0.38-0.062 0.03-0.104 0.05-0.167 0.08-0.057 0.03-0.108 0.05-0.166 0.08-0.026 0.02-0.058 0.03-0.084 0.05-0.029 0.01-0.054 0.02-0.083 0.04-0.048 0.02-0.078 0.06-0.125 0.08-0.023 0.01-0.061 0.03-0.084 0.04-0.051 0.03-0.115 0.06-0.167 0.09-0.059 0.03-0.107 0.05-0.166 0.08-0.026 0.01-0.058 0.03-0.084 0.04-0.03 0.02-0.053 0.03-0.083 0.04-0.049 0.03-0.077 0.06-0.125 0.09-0.023 0.01-0.061 0.03-0.084 0.04-0.052 0.03-0.113 0.05-0.166 0.08-0.042 0.02-0.084 0.06-0.126 0.08-0.125 0.07-0.251 0.14-0.375 0.21-0.041 0.03-0.084 0.06-0.125 0.09-0.123 0.07-0.253 0.13-0.375 0.2-0.041 0.03-0.085 0.06-0.125 0.09-0.203 0.13-0.385 0.28-0.584 0.42-0.04 0.02-0.086 0.05-0.125 0.08-0.357 0.25-0.697 0.51-1.043 0.79-0.038 0.03-0.087 0.05-0.125 0.08-0.153 0.13-0.308 0.25-0.459 0.38-0.037 0.03-0.087 0.05-0.125 0.08-0.037 0.04-0.046 0.1-0.083 0.13-0.038 0.03-0.088 0.05-0.125 0.08-0.005-0.07 0.004-0.13 0-0.21-0.028-0.51-0.053-1.03-0.084-1.54-0.135 0.04-0.258 0.1-0.375 0.17 0.036 0.61 0.075 1.23 0.115 1.86 0.96 14.95 2.976 34.41-0.323 56.48-0.002 0.01 0.002 0.02 0 0.04-0.002 0.01 0.002 0.03 0 0.04-0.003 0.01 0.002 0.03 0 0.04-0.036 0.24-0.088 0.47-0.126 0.71-0.002 0.01 0.003 0.03 0 0.04-0.002 0.02 0.003 0.03 0 0.04-0.002 0.02 0.003 0.03 0 0.04-0.037 0.24-0.086 0.47-0.125 0.71-0.002 0.02 0.003 0.03 0 0.05-0.002 0.01 0.003 0.02 0 0.04-0.024 0.15-0.058 0.3-0.083 0.46-0.042 0.25-0.081 0.53-0.125 0.79-0.096 0.56-0.189 1.14-0.292 1.71-0.025 0.14-0.058 0.27-0.083 0.41-0.027 0.15-0.057 0.28-0.084 0.42-0.057 0.31-0.11 0.61-0.167 0.92-0.228 1.22-0.451 2.4-0.667 3.59-0.002 0.01 0.003 0.02 0 0.04-0.051 0.28-0.116 0.59-0.167 0.87-0.105 0.59-0.189 1.18-0.292 1.75-0.051 0.29-0.115 0.55-0.166 0.84-0.101 0.57-0.194 1.14-0.292 1.71-0.098 0.56-0.197 1.15-0.292 1.71-0.096 0.55-0.199 1.08-0.292 1.62-0.186 1.1-0.366 2.2-0.542 3.26-2.59 15.62-4.154 27.56-5.755 36.82-0.002 0.01 0.002 0.03 0 0.04-0.213 1.24-0.45 2.44-0.667 3.59-0.028 0.14-0.056 0.31-0.083 0.45-0.055 0.29-0.112 0.56-0.167 0.84-0.028 0.14-0.055 0.28-0.084 0.42-0.083 0.41-0.165 0.84-0.25 1.25-0.028 0.13-0.054 0.28-0.083 0.41-0.115 0.54-0.216 1.03-0.334 1.55-0.059 0.25-0.148 0.54-0.208 0.79-0.09 0.38-0.158 0.72-0.251 1.08-0.061 0.25-0.145 0.52-0.208 0.75-0.063 0.24-0.103 0.44-0.167 0.67-0.003 0.01 0.004 0.03 0 0.04-0.064 0.24-0.143 0.44-0.208 0.67-0.098 0.34-0.191 0.67-0.292 1-0.068 0.22-0.139 0.45-0.209 0.67-0.069 0.21-0.137 0.41-0.208 0.62-0.424 1.27-0.882 2.48-1.376 3.59-0.185 0.41-0.362 0.84-0.542 1.25-0.008 0.02-0.035 0.03-0.042 0.04-0.173 0.39-0.331 0.79-0.501 1.17-0.025 0.06-0.058 0.11-0.083 0.17-0.172 0.38-0.331 0.78-0.5 1.16-0.064 0.15-0.145 0.28-0.209 0.42-0.026 0.06-0.057 0.11-0.083 0.17-0.062 0.14-0.106 0.28-0.167 0.42-0.03 0.06-0.053 0.14-0.083 0.2-0.056 0.13-0.111 0.25-0.167 0.38-0.064 0.14-0.145 0.28-0.209 0.42-0.024 0.05-0.059 0.11-0.083 0.16-0.035 0.08-0.049 0.18-0.084 0.25-0.05 0.12-0.116 0.23-0.166 0.34-0.039 0.08-0.087 0.16-0.126 0.25-0.045 0.1-0.079 0.19-0.125 0.29-0.044 0.1-0.08 0.19-0.125 0.29-0.043 0.1-0.082 0.2-0.125 0.29-0.133 0.29-0.283 0.59-0.417 0.88-0.039 0.08-0.085 0.16-0.125 0.25-0.052 0.11-0.115 0.22-0.167 0.33-0.032 0.07-0.05 0.14-0.083 0.21-0.059 0.13-0.108 0.25-0.167 0.38-0.031 0.06-0.052 0.14-0.083 0.2-0.068 0.15-0.182 0.28-0.251 0.42-0.018 0.04-0.023 0.09-0.041 0.13-0.065 0.13-0.102 0.28-0.167 0.41-0.035 0.08-0.09 0.14-0.125 0.21-0.013 0.03-0.029 0.06-0.042 0.09-0.018 0.03-0.023 0.08-0.042 0.12-0.024 0.05-0.058 0.07-0.083 0.13-0.021 0.04-0.021 0.08-0.042 0.12-0.027 0.06-0.055 0.11-0.083 0.17-0.033 0.07-0.092 0.14-0.125 0.21-0.013 0.02-0.029 0.05-0.042 0.08-0.019 0.04-0.023 0.09-0.042 0.12-0.04 0.09-0.084 0.17-0.125 0.25-0.073 0.15-0.134 0.32-0.208 0.46-0.008 0.02-0.034 0.03-0.042 0.05-0.028 0.05-0.055 0.11-0.083 0.16-0.022 0.04-0.062 0.08-0.084 0.13-0.005 0.01 0.006 0.03 0 0.04-0.087 0.17-0.203 0.33-0.292 0.5-0.005 0.01 0.006 0.03 0 0.04-0.043 0.08-0.081 0.17-0.125 0.25-0.005 0.01 0.006 0.03 0 0.04-0.093 0.18-0.197 0.37-0.292 0.54-0.048 0.1-0.118 0.16-0.166 0.26-0.107 0.2-0.184 0.38-0.292 0.58-0.049 0.09-0.076 0.16-0.125 0.25-0.009 0.02-0.033 0.02-0.042 0.04-0.041 0.08-0.084 0.18-0.125 0.25-0.061 0.11-0.106 0.22-0.167 0.33-0.036 0.07-0.088 0.15-0.125 0.21-0.015 0.03-0.027 0.06-0.042 0.09-0.044 0.08-0.122 0.13-0.167 0.21-0.006 0.01 0.007 0.03 0 0.04-0.107 0.19-0.224 0.39-0.333 0.58-0.055 0.1-0.112 0.2-0.167 0.29-0.029 0.05-0.054 0.12-0.083 0.17-0.025 0.04-0.059 0.08-0.084 0.12-0.042 0.08-0.082 0.14-0.125 0.21-0.015 0.03-0.026 0.06-0.042 0.09-0.022 0.03-0.019 0.08-0.041 0.12-0.035 0.06-0.091 0.11-0.125 0.17-0.021 0.03-0.021 0.09-0.042 0.12-0.035 0.06-0.09 0.11-0.125 0.17-0.017 0.03-0.025 0.05-0.042 0.08-0.041 0.07-0.083 0.14-0.125 0.21-0.015 0.03-0.026 0.06-0.042 0.09-0.042 0.07-0.083 0.13-0.125 0.2-0.015 0.03-0.026 0.06-0.041 0.09-0.043 0.07-0.083 0.14-0.126 0.21-0.026 0.04-0.056 0.08-0.083 0.12-0.034 0.06-0.09 0.11-0.125 0.17-0.006 0.01 0.006 0.03 0 0.04-0.053 0.09-0.113 0.16-0.167 0.25-0.009 0.01-0.032 0.03-0.042 0.04-0.05 0.08-0.074 0.17-0.125 0.25-0.068 0.11-0.139 0.18-0.208 0.29-0.185 0.3-0.351 0.58-0.542 0.88-0.1 0.15-0.19 0.3-0.29 0.46-0.07 0.1-0.14 0.19-0.21 0.29-0.03 0.04-0.06 0.08-0.08 0.12-0.06 0.08-0.12 0.17-0.17 0.25-0.01 0.02-0.03 0.03-0.04 0.05-0.06 0.08-0.12 0.17-0.17 0.25-0.01 0.01-0.03 0.02-0.04 0.04-0.05 0.08-0.07 0.17-0.13 0.25-0.08 0.13-0.2 0.24-0.29 0.37-0.04 0.07-0.08 0.15-0.12 0.21-0.03 0.04-0.06 0.05-0.09 0.09-0.04 0.06-0.08 0.14-0.12 0.2-0.03 0.04-0.06 0.09-0.09 0.13-0.03 0.06-0.08 0.11-0.12 0.17-0.03 0.04-0.05 0.08-0.08 0.12-0.04 0.06-0.09 0.11-0.13 0.17-0.03 0.04-0.05 0.08-0.08 0.12-0.04 0.06-0.09 0.11-0.13 0.17-0.03 0.05-0.05 0.12-0.08 0.17-0.06 0.09-0.14 0.16-0.21 0.25-0.01 0.01-0.03 0.02-0.04 0.04-0.03 0.04-0.05 0.08-0.08 0.12-0.05 0.06-0.09 0.11-0.13 0.17-0.03 0.05-0.05 0.12-0.08 0.17-0.04 0.05-0.09 0.11-0.13 0.16-0.03 0.05-0.05 0.09-0.08 0.13-0.11 0.15-0.22 0.3-0.33 0.46-0.02 0.01-0.04 0.02-0.05 0.04-0.05 0.08-0.1 0.17-0.16 0.25-0.03 0.03-0.06 0.05-0.09 0.08-0.01 0.03-0.02 0.06-0.04 0.09-0.06 0.08-0.15 0.12-0.21 0.21-0.01 0.02-0.02 0.05-0.04 0.08-0.06 0.08-0.14 0.17-0.21 0.25 0 0.01 0.01 0.03 0 0.04-0.07 0.1-0.13 0.2-0.21 0.29-0.01 0.02-0.03 0.03-0.04 0.04-0.07 0.1-0.14 0.16-0.21 0.25-0.03 0.04-0.05 0.09-0.08 0.13l-0.42 0.54c-0.16 0.21-0.33 0.42-0.5 0.63-0.01 0.01-0.03 0.02-0.04 0.04-0.15 0.2-0.3 0.38-0.46 0.58-0.01 0.02-0.03 0.03-0.04 0.04-0.07 0.1-0.17 0.2-0.25 0.3-0.01 0.01-0.03 0.02-0.04 0.04-0.08 0.09-0.13 0.2-0.21 0.29-0.1 0.13-0.23 0.29-0.33 0.42-0.07 0.07-0.15 0.13-0.21 0.21-0.03 0.03-0.05 0.08-0.08 0.12-0.06 0.07-0.11 0.14-0.17 0.21-0.07 0.09-0.14 0.16-0.21 0.25-0.02 0.03-0.06 0.05-0.08 0.08-0.04 0.04-0.05 0.09-0.09 0.13-0.06 0.07-0.1 0.14-0.16 0.21-0.08 0.09-0.17 0.19-0.25 0.29-0.02 0.01-0.03 0.03-0.05 0.04-0.04 0.05-0.08 0.12-0.12 0.17-0.05 0.06-0.12 0.1-0.17 0.16s-0.11 0.11-0.16 0.17c-0.05 0.05-0.08 0.11-0.13 0.17-0.06 0.06-0.11 0.14-0.17 0.21-0.03 0.04-0.08 0.08-0.12 0.12-0.06 0.07-0.11 0.14-0.17 0.21l-0.12 0.12c-0.07 0.08-0.1 0.18-0.17 0.25-0.04 0.05-0.09 0.09-0.12 0.13-0.17 0.19-0.37 0.39-0.55 0.58-0.02 0.03-0.02 0.06-0.04 0.09-0.08 0.09-0.16 0.19-0.25 0.29-0.02 0.03-0.06 0.05-0.08 0.08-0.08 0.09-0.17 0.16-0.25 0.25-0.02 0.03-0.02 0.06-0.04 0.09-0.2 0.22-0.43 0.44-0.63 0.66-0.01 0.01 0.01 0.04 0 0.04-0.11 0.13-0.22 0.26-0.33 0.38 20.978-20.84 38.444-54.85 46.409-95.2 5.781-29.29 5.674-57.43 0.792-81.07z"
              />
              <path
                  id="path15409"
                  inkscape:connector-curvature="0"
                  style="opacity:.45588;fill:url(#radialGradient3570)"
                  transform="matrix(.17321 .64643 -.64643 .17321 853.07 853.07)"
                  d="m-168.62 747.94c-49.43 6.62-106.7 36.41-155.57 85.28-40.48 40.48-67.87 86.75-79.84 129.53l0.78 0.66c16.86-2.43 33.45-5.68 49.75-9.69 10.41-20.65 23.35-44.12 40.22-71.97 25.67-42.37 46-38.64 80.87-61.25 7.83-5.07 13.82-8.49 18.63-10.97v-0.03c-4.76 1.68-10.17 3.23-16.28 4.75 18.72-5.86 26.49-12.17 35.12-18.44 10.36-7.52 9.51-10.26 22.47-39.56 1.31-2.95 2.6-5.71 3.85-8.31z"
              />
            </g
            >
            <path
                id="path4238"
                style="fill:#85420b"
                inkscape:connector-curvature="0"
                d="m-70.385 399.14c-2.553-0.52-5.113-0.36-7.652 0.63 3.222 4.69 4.145 11.53 3.933 19.52-0.646-5.36-3.466-15.69-5.48-17.72-0.028-0.03-0.069-0.09-0.102-0.12-0.031-0.02-0.129-0.07-0.167-0.09-0.004-0.01-0.026-0.01-0.029-0.01-0.017-0.01-0.06-0.07-0.078-0.08h-0.03c-0.004-0.01-0.026-0.01-0.03-0.01-0.012-0.01-0.071-0.04-0.083-0.05h-0.03c-0.016 0-0.08 0-0.096 0.01-0.004 0-0.026-0.01-0.03-0.01-0.008 0.01-0.063 0.04-0.071 0.05-0.005 0-0.027-0.01-0.03-0.01-0.004 0-0.056-0.01-0.06-0.01-0.001 0-0.006 0.03-0.006 0.03-0.039 0.02-0.073 0.05-0.108 0.07-0.007 0.01-0.029 0.02-0.036 0.03-0.006 0-0.029 0.01-0.036 0.02-0.031 0.02-0.086 0.07-0.114 0.1-0.011 0.01-0.031 0.04-0.042 0.05-0.01 0.02-0.032 0.04-0.042 0.06-0.018 0.02-0.067 0.08-0.084 0.1-0.016 0.03-0.04 0.09-0.054 0.12-0.751 1.85 1.477 7.76-1.158 21.31-3.012 15.5-5.563 23-8.951 40.54-3.388 17.55-1.916 14.95-3.247 30.07-1.33 15.12-1.21 11.36-0.961 31.06 0.25 19.69-4.67 19.55 2.967 48.77 7.602 29.09 19.444 33.68 32.737 64.34 13.303 30.68 5.057 31.14 22.801 55.07 7.733 10.43 11.925 13.93 17.077 17.43-24.691-21.41-12.262-41.69-26.655-75.29-11.575-27.02-5.747-36.07-16.414-52.84-10.44-16.42 12.285-40.01 12.776-66.1 0.016-0.87 0.063-1.72 0.121-2.59 0.001 0 0.005-0.03 0.006-0.03-0.004-0.02-0.037-0.09-0.041-0.1 0.001-0.01 0.005-0.03 0.006-0.03-0.437-10.56-1.641-23.22-1.776-35.35-2.116 2.46-4.928 3.37-13.721 1.57 7.93 0.77 9.698-2.72 13.518-5.47 0.126-6.77 0.926-14.74 2.249-20.41 3.897-16.68 5.325-33.4-4.934-44.13-4.632-4.85-9.518-8.73-14.475-10.19-0.079-0.02-0.16-0.02-0.239-0.05-0.08-0.02-0.159-0.02-0.239-0.05-0.165-0.04-0.342-0.06-0.507-0.1-0.126-0.03-0.257-0.08-0.383-0.11zm57.196 34.11c-1.409-0.23-2.854-0.18-4.357 0.17 2.104 4.9 1.808 11.48 0.241 19.02 0.369-5.08-0.446-15.73-1.972-17.69-0.013-0.01-0.065-0.07-0.078-0.08s-0.041-0.03-0.054-0.04c-0.002-0.01-0.05-0.04-0.053-0.05-0.003 0-0.015-0.06-0.018-0.06-0.004 0-0.027-0.01-0.03-0.01s-0.056-0.01-0.06-0.01c-0.012-0.01-0.041-0.03-0.053-0.04-0.004 0-0.056-0.01-0.06-0.01-0.008 0-0.027 0.01-0.036 0.02-0.004 0-0.021 0-0.03-0.01-0.003 0-0.051-0.03-0.053-0.04-0.016 0.01-0.051 0.02-0.066 0.02s-0.087 0.04-0.102 0.04c-0.021 0.01-0.082 0.03-0.102 0.04-0.038 0.02-0.109 0.07-0.143 0.1-1.329 1.17 0.043 6.94-4.836 19.98-5.249 14.02-10.066 18.96-15.22 34.5-5.609 16.91-5.746 15.7-7.268 29.65-1.107 10.15-2.01 15.36-6.737 27.96-6.311 16.83-10.511 21.08 1.285 47.25 4.098 9.09 5.44 25.3 9.413 37.55 2.466 7.61 5.317 17.02 8.027 29.37 6.698 30.52 5.354 32.98 13.793 42.17 7.034 7.67 13.235 15.21 29.989 24.45-5.5451-2.64-10.414-5.17-14.638-7.71-0.0017 0.01-0.0056 0.03-0.0061 0.03 4.1191 3.3 9.1796 7.74 15.67 14.1 28.942 28.38 49.095 28.77 65.4 74.24 10.851 30.27 18.705 55.46 24.671 77.41 34.192 15.92 70.702 28.24 109.14 36.35-1.63-49.86 3.66-145.82-10.76-158.89-2.4 13.14-11.17 22.52-13.99 22.6h-0.03c-0.01 0-0.08 0-0.09 0.01 0 0-0.03-0.01-0.03-0.01h-0.03c-0.02-0.01-0.07-0.02-0.09-0.02-0.01 0-0.03-0.01-0.03-0.01-0.01-0.01-0.07-0.04-0.08-0.05h-0.03c-0.02-0.01-0.08-0.04-0.09-0.05s-0.06-0.06-0.07-0.08c-0.02-0.01-0.05-0.03-0.06-0.04 9.85-14.96 10.3-25.87 9.81-30.38-2.05-19.09-4.66-41.87-8.21-47.45 1.21 9.93-2.03 19.66-7.14 27.32 4.99-10.65 5.97-34.86-3.57-35.68 1.29 4.02 0.43 28.7-8.5 36.18 7.75-56.12-13.8-37.94-28.67-77.78-14.86-39.85-17.55-55.35-33.19-79.42-11.262-17.35-22.573-14.38-30.303-12.01-4.273 1.62-6.286 3.51-8.583 5.97-3.952 4.22-11.566 5.67-8.447 26.43 3.512 23.39 9.697 45.48 22.335 64.87 16.289 24.99 12.268 23.08 15.88 47.51 2.519 17.03 8.768 36.15 15.698 46.1-4.01-3.17-11.126-9.44-14.147-21.59-2.184-8.79-2.663-17.4-3.352-25.9-0.01-0.02-0.013-0.02-0.023-0.04-4.064-6.13-9.161-11.46-17.72-14.27 2.483-0.98 4.54-0.82 6.467-0.14 0.17 0.06 0.322 0.12 0.49 0.19 1.621 0.64 3.156 1.62 4.75 2.33 1.913 1.26 3.677 2.7 5.3 4.38-1.024-8.7-2.901-17.3-7.757-25.96l-30.829-15.56c-3.234-1.12-8.056 0.53-8.859 2.58-0.001 0.01-0.011 0.06-0.012 0.06-0.017 0.03-0.074 0.09-0.084 0.11-0.001 0-0.006 0.02-0.006 0.03-0.001 0-0.006 0.02-0.006 0.03-0.007 0.03-0.031 0.14-0.037 0.18 0 0.04 0.028 0.12 0.03 0.16-0.001 0-0.006 0.03-0.006 0.03-0.002 0-0.012 0.06-0.013 0.06 0.005 0.01 0.014 0.05 0.018 0.06 0.024 0.11 0.056 0.24 0.089 0.33-0.001 0.01-0.005 0.03-0.006 0.03-0.001 0.01-0.005 0.02-0.006 0.03 0.003 0.01 0.043 0.07 0.047 0.08 0.017 0.02 0.039 0.05 0.048 0.07 0.069 0.13 0.178 0.3 0.285 0.43 0.152 0.18 0.369 0.39 0.602 0.56l9.524 9.15c4.39 5.43 8.156 9.62 8.303 15.3-4.23-5.51-9.1-10.38-15.676-10.24 8.905 12.94 23.935 26.2 35.548 35.96-12.559-7.8-27.843-21.82-44.54-39.16-1.339 2.67-2.994 5.25-4.978 7.82 4.631-9.66 6.793-18.77 5.192-28.92-1.934-5.67-4.324-8.64-6.755-11.6-0.769 5.48-0.75 11.28-3.86 15.63 2.19-5.74 1.399-12.43-0.216-19.45-2.659-6.77-6.253-12.34-10.426-17.1 0.05 8.22-3.272 13.03-7.5935 16.86 2.8515-6.84 5.7025-13.66 2.5315-20.88-5.1021-14.89-15.676-33.16-20.88-44.17-4.465 2.22-9.435 3.61-14.914 4.37 5.1-1.87 9.695-4.03 13.839-6.73-1.465-3.34-2.233-5.73-1.85-6.82 0.003-0.01 0.003-0.02 0.006-0.03 4.1577-10.31 5.9683-39.11 4.1059-55.11-2.3097 2.01-4.9879 2.45-12.663-0.58 7.038 1.94 9.275-1.01 13.152-3.05 1.2384-6.3 3.2715-13.62 5.3881-18.72 6.2321-15 10.257-30.4 2.9421-41.88-4.2422-6.65-9.1647-11.82-14.832-12.71zm-86.991-10.52c-3.45-0.56-6.54 0.48-9.97 2.23 3.12 3.68 4.47 9.34 4.97 16.09-1.06-4.61-6.33-14.59-6.33-14.59s-0.02-0.01-0.03-0.01l-0.05-0.04c-0.01 0-0.03-0.01-0.03-0.01h-0.03c-0.01 0-0.06-0.01-0.06-0.01-0.01-0.01-0.03-0.01-0.03-0.01-0.01 0-0.03-0.01-0.03-0.01-0.01 0-0.06-0.01-0.06-0.01-0.01 0.01-0.04 0.02-0.04 0.02h-0.03s-0.05-0.01-0.06-0.01l-0.03 0.02c-0.04 0.02-0.12 0.07-0.15 0.1-0.01 0.01-0.03 0.04-0.04 0.05 0 0-0.03 0.02-0.04 0.02-1.05 1.23 1.8 5.81 0.66 18.36-1.2 13.26-2.71 19.79-4.06 34.81-1.34 15.02-0.29 12.73-0.12 25.54 0.18 12.81-0.4 9.68 1.84 26.16 4.78 35.02 0.98 41.01 6.03 51.01 3.29 6.51 14.364 14.47 26.083 23.15-11.745-18.99-13.489-28.7-16.682-43.1-2.741-12.35 0.488-31.98 1.052-71 0.349-24.17 6.736-44.23 10.873-59.49l-0.298-0.38c-0.939-1.23-1.956-2.34-3.092-3.3-3.465-2.93-6.393-4.64-9.05-5.35-0.086-0.02-0.154-0.03-0.239-0.05-0.332-0.08-0.631-0.14-0.957-0.19zm198.04 151.97c0.332 0.04 0.643 0.12 0.955 0.19 0.147 0.03 0.308 0.05 0.448 0.09 0.009 0 0.027 0.01 0.03 0.01 0.034 0 0.087 0.01 0.12 0.02 0.005 0 0.024 0.01 0.03 0.01 0.014 0 0.045 0.01 0.059 0.01 0.005 0 0.025 0 0.03 0.01 0.313 0.1 0.626 0.24 0.916 0.37 1.62 0.72 2.83 1.95 3.46 3.78 1.81 5.24 4.15 11.31 4.4 17.72-0.54-5.75-3.12-11.22-5-15.98-3.692-9.35-23.96-2.28-35.796 4.77 8.854-5.87 22.35-12.09 30.348-11zm-98.727 2.7c5.4478 12.24 16.672 36.77 17.802 38.36 5.561 3.83 10.063 10.58 14.091 18.5 0 0 11.712 11.17 12.653 19.77 0.183 1.68 0.157 2.96 0.07 4.55l0.937-1.7c1.066-2.41 5.275-3.27 9.144-1.85l20.503 9.14c-6.241-8.79-7.366-7.02-13.434-24.34-3.017-8.61-5.578-15.83-7.348-22.76-0.009-0.02-0.015-0.06-0.018-0.07-2.516-3.38-4.065-6.62-10.817-12.12-12.623-10.27-26.506-12.69-38.034-22.49-1.9458-1.66-3.7778-3.34-5.5492-4.99zm106.46 23.71c0.32 0.05 0.62 0.12 0.92 0.19 0.05 0.01 0.13 0.03 0.18 0.04 0.03 0 0.06 0.01 0.09 0.01 0.01 0.01 0.03 0.01 0.03 0.01 0.02 0 0.05 0.01 0.06 0.01 0 0 0.03 0.01 0.03 0.01s0.02 0.03 0.03 0.04h0.03l0.02 0.01c0.02 0 0.05 0.01 0.06 0.01 0.36 0.09 0.72 0.21 1.06 0.34-0.02 0.14-0.04 0.31-0.07 0.45-12.198-1.16-31.733 7.45-37.39 13.08 2.626 2.45 5.685 4.25 9.22 4.52 9.106 0.7 19.745-2.74 24.98-9.7 0.05-0.06 0.09-0.12 0.13-0.19-0.04 0.07-0.08 0.13-0.13 0.19-5.334 8.06-16.349 12.43-25.74 11.91-8.632-0.48-14.219-10.87-17.478-16.98-1.503-2.83-3.468-7.49-2.89-10.73-0.114 2.94 1.869 6.93 3.318 9.38 1.88 3.18 4.528 7.6 7.964 11.01 0.002 0 0.057 0.01 0.06 0.01 0.091-0.36 0.191-0.72 0.361-1.01 0.015-0.03 0.032-0.06 0.049-0.09 0.002 0 0.003-0.02 0.006-0.03 3.43-5.03 23.643-14.31 35.1-12.49zm21.23 58.96c-6.67 6.79-23.22 16.25-34.317 10.5-4.149-2.15-6.264-4.31-6.57-5.47-0.004-0.01-0.006-0.07-0.012-0.1 0.003-0.01 0.015-0.07 0.018-0.09-0.004-0.01-0.043-0.05-0.047-0.07 0.001 0 0.011-0.05 0.012-0.06 0.003-0.01 0.009-0.04 0.012-0.06 0.001 0 0.011-0.05 0.012-0.06 0.001 0 0.005-0.02 0.006-0.03 0.001 0 0.006-0.02 0.006-0.03 0.001 0 0.012-0.05 0.013-0.06 0.009-0.01 0.061-0.03 0.071-0.04 0.01-0.02 0.034-0.07 0.048-0.09 0.007 0 0.027-0.01 0.036-0.02 0.007-0.01 0.066-0.04 0.072-0.05 0.008 0 0.028-0.02 0.036-0.02 0.009-0.01 0.028-0.02 0.036-0.03 0.023 0 0.089-0.03 0.102-0.04 0.002 0 0.021 0.01 0.03 0.01 0.015-0.01 0.08-0.01 0.095-0.01 0.03-0.01 0.094-0.01 0.126-0.01 0.944-0.04 2.836 0.7 5.532 2.62 8.013 5.7 27.033 0.01 34.683-6.79zm-4.78 10.38c0.01-0.01 0.02 0.01 0.03 0-5.9 4.16-17.54 9.33-25.182 6.55-3.001-1.1-4.553-2.28-4.808-2.97-0.011-0.04-0.043-0.15-0.053-0.2 0 0 0.005-0.02 0.006-0.03 0.002-0.01 0.013-0.07 0.018-0.09 0.009-0.01 0.062-0.03 0.072-0.04 0.009-0.02 0.038-0.08 0.048-0.09 0.006 0 0.027-0.02 0.036-0.02 0.002 0 0.032-0.02 0.036-0.03 0.004 0 0.034-0.02 0.036-0.02 0.015 0 0.051-0.01 0.065-0.02 0.649-0.16 2.188 0.15 4.372 1.3 5.494 2.87 18.654-0.4 25.324-4.34zm-80.549-1.97c-0.24 1.01-0.46 2-0.792 2.98 3.831 0.72 7.815 2.29 12.102 6.25-2.276-3.47-5.55-6.62-10.874-9.08-0.003-0.01-0.021-0.03-0.024-0.04-0.004 0-0.056-0.01-0.06-0.01-0.037-0.01-0.105-0.02-0.149-0.03-0.015 0-0.067-0.01-0.089-0.02h-0.03c-0.003-0.01-0.018-0.03-0.024-0.04-0.004 0-0.056-0.01-0.06-0.01z"
            />
            <path
                id="path4240"
                style="fill-rule:evenodd"
                inkscape:connector-curvature="0"
                d="m-0.87175 577.41c1.7714 1.64 3.5978 3.33 5.5438 4.98 11.528 9.81 25.424 12.23 38.047 22.51 6.752 5.49 8.302 8.73 10.818 12.11 0.004 0.01 0.029 0.04 0.032 0.05 1.769 6.94 4.307 14.17 7.324 22.78 6.068 17.32 7.195 15.56 13.436 24.35l-20.509-9.15c-3.869-1.43-8.064-0.56-9.129 1.84l-0.877 2.27c0.104-1.67 0.073-3.37-0.12-5.13-0.94-8.6-12.669-19.75-12.669-19.75-4.027-7.92-8.523-14.67-14.084-18.51-1.13-1.58-12.365-26.11-17.813-38.35zm6.3638 8.1c4.0994 8.31 12.511 24.94 13.463 26.26 3.635 2.4 6.689 6.33 9.465 11.01 0.002 0.01 0.03 0.05 0.032 0.05 0.006 0.01 0.034 0 0.04 0.01 0.002 0-0.01 0.04-0.008 0.04 14.555 15.92 27.52 25.64 20.337 0.19 0.002-0.01 0.007-0.04 0.008-0.04-0.071-0.19-0.152-0.36-0.222-0.55 0 0 0.009-0.03 0.008-0.04 0 0 0.009-0.03 0.008-0.03 0-0.01-0.038-0.01-0.039-0.01-0.046-0.12-0.09-0.24-0.135-0.36-1.18-3.11-2.194-6.03-3.02-8.83-1.87-2.33-3.053-4.52-8.014-8.35-9.272-7.17-19.375-9.08-27.85-15.91-1.4305-1.15-2.7683-2.3-4.0729-3.44z"
            />
            <path
                id="path4242"
                style="fill-rule:evenodd;fill:url(#linearGradient3572)"
                inkscape:connector-curvature="0"
                d="m5.5015 585.52c1.3046 1.15 2.6536 2.28 4.0841 3.43 8.4754 6.83 18.557 8.72 27.83 15.89 4.96 3.83 6.128 6.05 7.998 8.38 0.827 2.81 1.867 5.72 3.047 8.83 0.045 0.12 0.096 0.23 0.141 0.35 0.008 0.02 0.005 0.06 0.013 0.09 0.07 0.18 0.134 0.35 0.205 0.54 0.003 0.01-0.016 0.02-0.013 0.03 7.183 25.46-5.75 15.72-20.306-0.19-0.014-0.03-0.05-0.04-0.064-0.07-2.776-4.68-5.839-8.62-9.474-11.02-0.841-1.09-9.3298-17.88-13.462-26.26z"
            />
            <path
                id="path4244"
                style="fill-rule:evenodd"
                inkscape:connector-curvature="0"
                d="m89.632 562.85c-5.922-1.15-12.705-0.33-20.449 4.53 7.401-1.57 20.964-10 34.467 10.79 15.64 24.08 18.3 39.57 33.16 79.42 14.87 39.84 36.4 21.63 28.65 77.75 8.93-7.49 9.84-32.13 8.55-36.14 9.84 0.85 8.45 26.49 3.05 36.56 5.48-7.83 8.83-18.03 7.51-28.39 3.64 5.12 6.21 28.26 8.3 47.65 0.48 4.51 0.07 15.4-9.78 30.36 1.67 2 11.98-7.91 14.62-22.35 17.69 16.04 11.6 87.2 9.55 114.77-1.24 16.75-6.65 42.4-6.65 42.4 3.89 0.89 15.31 3.23 17.09 3.57 0 0 11.66-11.02 9.99-56.65-1.16-31.48-16.15-91.54-27.78-115.55-0.6-23.11-4.42-49.42-29.98-66.86-17.49-11.92-21.08-4.97-33.05-38-9.32-25.68-20.46-76.91-45.618-83.46-0.541-0.14-1.073-0.29-1.63-0.4z"
            />
            <path
                id="path4246"
                style="fill-rule:evenodd"
                inkscape:connector-curvature="0"
                d="m110.19 757.05c-6.93-9.95-13.162-29.09-15.681-46.12-3.612-24.43 0.414-22.49-15.874-47.49-12.638-19.39-18.847-41.5-22.36-64.89-3.513-23.4 6.629-22.24 9.775-28.19-6.357 1.96-12.397 8.26-12.672 18.46-0.509 18.89 4.414 32.77 12.063 53.99 7.65 21.21 8.038 16.21 17.068 30.37 13.114 20.56 8.193 40.83 13.518 62.26 3.021 12.15 10.153 18.43 14.163 21.61z"
            />
            <path
                id="path4248"
                style="fill-rule:evenodd"
                inkscape:connector-curvature="0"
                d="m129.42 656.83c-3.15 6.23-23.84 20.5-36.909 13.74-9.077-4.71-8.411-9.43-0.385-3.72 9.244 6.57 33.074-2.06 37.294-10.02z"
            />
            <path
                id="path4250"
                style="fill-rule:evenodd"
                inkscape:connector-curvature="0"
                d="m125.44 667.54c-2.62 3.8-18.88 12.98-28.576 9.45-6.739-2.46-6.063-5.28-0.16-2.19 6.796 3.56 25.246-2.4 28.736-7.26z"
            />
            <path
                id="path4252"
                style="fill-rule:evenodd"
                inkscape:connector-curvature="0"
                d="m108.09 601.8c-0.02 0.14-0.05 0.3-0.07 0.45-12.249-1.17-31.846 7.48-37.416 13.11-0.2-0.19-0.383-0.39-0.578-0.58 0.001-0.01 0.012-0.04 0.013-0.04 0.104-0.41 0.244-0.81 0.465-1.13 3.698-5.43 26.874-15.74 37.586-11.81z"
            />
            <path
                id="path4254"
                style="fill-rule:evenodd"
                inkscape:connector-curvature="0"
                d="m100.45 575.43c1.62 0.73 2.82 1.95 3.45 3.78 2.26 6.53 5.43 14.29 4.23 22.47 0.94-7.48-2.42-14.68-4.81-20.74-4.055-10.27-28.103-0.67-39.013 6.87 9.352-7.07 28.008-16.01 36.143-12.38zm6.16 31.66c-4.31 10.02-16.954 15.52-27.477 14.94-8.633-0.48-14.256-10.86-17.515-16.98-1.632-3.06-3.858-8.32-2.734-11.55-0.605 2.98 1.591 7.51 3.186 10.21 3.388 5.73 9.229 15.46 17.799 16.12 10.336 0.8 22.591-3.79 26.741-12.74z"
            />
            <path
                id="path4256"
                style="fill-rule:evenodd"
                inkscape:connector-curvature="0"
                d="m-67.889 396.04c-1.101-0.16-2.178-0.17-3.251-0.07-13.523 1.33-12.098 3.75-11.921 16.89 0.208 15.41-13.827 42.41-14.35 78.6-0.564 39.02-3.799 58.68-1.058 71.03 3.725 16.8 5.483 27.21 23.447 53.43 28.461 41.53 12.585 69.41 52.53 96.41 26.486 17.9 33.066 30.66 56.237 48.77 8.673 6.78 23.622 19.85 36.25 47.05 10.302 22.18 15.631 48.76 20.064 72.99 3.064 1.5 6.143 2.95 9.245 4.39-5.962-21.94-13.8-47.12-24.647-77.37-16.305-45.47-36.458-45.86-65.4-74.24-6.4905-6.36-11.521-10.79-15.64-14.09-0.046-0.03-0.0919-0.06-0.1374-0.09-5.1496-3.1-9.3756-6.17-12.876-9.18-0.05-0.03-0.118-0.06-0.168-0.09-0.025-0.02-0.052-0.06-0.077-0.08-5.152-3.5-9.38-6.98-17.113-17.41-17.744-23.93-9.528-24.4-22.831-55.08-13.292-30.65-25.135-35.25-32.737-64.34-7.637-29.22-2.687-29.07-2.937-48.76-0.249-19.7-0.369-15.94 0.961-31.06 1.331-15.12-0.147-12.49 3.241-30.04 3.388-17.54 5.915-25.08 8.927-40.57 2.67-13.74 0.362-19.63 1.206-21.4 0.031-0.06 0.093-0.14 0.132-0.19 0.01-0.01 0.032-0.04 0.042-0.06 0.038-0.04 0.105-0.09 0.15-0.12 0.007-0.01 0.029-0.02 0.036-0.02 0.007-0.01 0.029-0.02 0.036-0.03 0.029-0.01 0.07-0.03 0.102-0.04 0.006 0 0.028-0.02 0.036-0.02 0.012 0 0.049 0.01 0.06 0.01 0.024-0.01 0.071-0.01 0.095-0.01 0.016-0.01 0.046-0.02 0.066-0.02h0.03c0.003 0.01 0.028 0.01 0.03 0.01 0.02 0.01 0.047 0.01 0.059 0.01 0.009 0.01 0.045 0.01 0.06 0.02h0.03c0.02 0.01 0.051 0.06 0.078 0.08 0.003 0 0.026 0 0.029 0.01 0.027 0.01 0.071 0.06 0.108 0.08 0.005 0 0.025 0 0.03 0.01 0.004 0 0.018 0.03 0.023 0.03 0.033 0.03 0.08 0.06 0.108 0.09 2.014 2.03 4.834 12.36 5.48 17.72 0.212-7.99-0.717-14.8-3.939-19.5 7.929-3.07 16.071 2.07 23.501 9.85 10.259 10.73 8.801 27.44 4.905 44.13-1.324 5.66-2.094 13.64-2.22 20.41-3.911 2.82-5.722 6.34-14.145 5.34 9.265 1.97 12.19 1.04 14.354-1.47 0.138 12.32 1.374 25.23 1.792 35.88 0.397-6.44 1.935-12.96 4.081-19.32-0.374-1.18-0.765-2.36-1.166-3.6-2.13-6.55-1.771-21.11-0.297-30.22 2.326-14.39 6.963-21.03 2.835-38.15-2.904-12.04-11.682-22.74-20.53-25.84-0.981-0.35-1.985-0.61-2.956-0.76z"
            />
            <path
                id="path4258"
                style="fill-rule:evenodd"
                inkscape:connector-curvature="0"
                d="m-96.839 421.7c3.641 1.49 7.329 4.5 10.442 8.26-0.146 0.55-0.275 1.1-0.427 1.66-0.939-1.23-1.959-2.35-3.094-3.31-8.639-7.31-13.842-6.61-20.232-3.35 3.13 3.7 4.5 9.38 5 16.18-1.01-4.57-4.48-13.62-6.32-14.69-0.01-0.01-0.06-0.02-0.08-0.02-0.01-0.01-0.06-0.02-0.07-0.03-0.01 0-0.03-0.01-0.04-0.01s-0.03-0.01-0.04-0.01c-0.01-0.01-0.06-0.03-0.08-0.03s-0.07 0.01-0.09 0.01c-0.02 0.01-0.07 0.01-0.09 0.01-0.01 0.01-0.04 0.02-0.05 0.03-0.04 0.02-0.08 0.07-0.11 0.09-1.28 1.1 1.72 5.57 0.56 18.42-1.2 13.26-2.7 19.82-4.04 34.84-1.35 15.02-0.32 12.71-0.15 25.52 0.18 12.81-0.41 9.66 1.84 26.13 4.78 35.02 0.97 41.04 6.02 51.04 3.28 6.51 14.359 14.47 26.079 23.15 1.893 3.06 4.066 6.34 6.53 9.95-3.833-3.19-7.611-6.05-11.304-8.51-7.135-4.74-19.385-15.19-22.425-19.86-6.47-9.96-4.26-25.21-9.52-83.57-2.75-30.42 6.06-54.29 5.3-67.27-0.78-13.23-2.25-11.43 8.55-15.15 2.42-0.84 5.111-0.59 7.841 0.52z"
            />
            <path
                id="path4260"
                style="fill-rule:evenodd"
                inkscape:connector-curvature="0"
                d="m-7.0658 431.67c8.0579 3.3 14.966 15.36 15.581 27.87 0.8146 16.55-4.4211 22.11-8.877 35.19-2.8248 8.3-3.9049 13.55-3.4649 19.94 1.0915 15.86-2.4182 50.08-2.5636 52.07-0.0016 0.01-0.0117 0.04-0.0129 0.04 0.5529 2.1 19.963 46.94 21.335 48.84 5.645 4.04 10.228 11.3 14.36 19.86 0 0 11.919 11.89 12.942 21.28 0.21 1.93 0.262 3.8 0.171 5.63l0.853-2.54c1.055-2.66 5.282-3.69 9.198-2.24l28.054 12.53c0.617 0.91 1.271 1.9 1.989 3.03 0.604 0.95 1.175 1.9 1.706 2.84l-30.814-15.55c-3.235-1.12-8.087 0.54-8.891 2.59-0.018 0.05-0.046 0.14-0.064 0.2-0.003 0-0.011 0.03-0.013 0.03-0.005 0.04-0.01 0.13-0.013 0.17-0.005 0.05-0.013 0.12-0.013 0.17 0.001 0.16 0.034 0.34 0.089 0.5 0.004 0.01 0.021 0.04 0.025 0.05 0.156 0.37 0.453 0.78 0.95 1.13l9.502 9.15c4.391 5.44 8.189 9.64 8.335 15.32-4.229-5.51-9.11-10.42-15.686-10.28 8.906 12.95 23.927 26.26 35.541 36.02-12.559-7.8-27.815-21.86-44.512-39.19-1.375 2.74-3.088 5.41-5.144 8.05 4.706-9.75 6.958-18.91 5.344-29.13-1.934-5.67-4.354-8.66-6.784-11.63-0.8 5.7-0.613 11.85-4.115 16.25 2.456-5.86 1.698-12.81 0.031-20.06-2.659-6.77-6.217-12.35-10.39-17.12 0.05 8.22-3.266 13.05-7.588 16.89 2.852-6.84 5.711-13.68 2.54-20.9-5.1019-14.88-15.727-33.14-20.931-44.15-4.464 2.22-9.407 3.6-14.886 4.36 5.099-1.88 9.691-4.02 13.835-6.73-1.488-3.39-2.242-5.81-1.815-6.87 4.1577-10.31 5.9483-39.08 4.0859-55.07-2.3257 2.02-5.0229 2.45-12.821-0.65 7.171 2.03 9.408-0.95 13.315-3 1.2386-6.3 3.2499-13.61 5.3666-18.71 6.232-15.01 10.287-30.41 2.972-41.89-5.2975-8.31-11.673-14.27-19.219-12.53 2.104 4.9 1.806 11.45 0.24 18.99 0.369-5.08-0.439-15.71-1.966-17.68-0.011-0.01-0.053-0.06-0.064-0.07-0.014-0.01-0.05-0.05-0.064-0.06s-0.046-0.05-0.064-0.07c-0.009 0-0.032 0-0.039-0.01-0.003 0-0.035-0.01-0.038-0.01-0.012-0.01-0.053-0.05-0.065-0.07-0.007 0-0.031-0.01-0.038-0.01-0.009 0.01-0.043 0.02-0.052 0.03-0.003 0-0.034-0.01-0.038-0.02-0.004 0-0.035-0.01-0.039-0.01-0.015 0-0.074 0.01-0.09 0.01-1.929 0.54 0.086 6.13-5.163 20.15-5.248 14.02-10.1 18.97-15.254 34.52-5.609 16.91-5.752 15.69-7.274 29.64-1.107 10.15-1.978 15.34-6.706 27.95-6.31 16.82-10.519 21.08 1.277 47.26 4.097 9.09 5.445 25.3 9.419 37.55 2.466 7.61 5.345 16.98 8.056 29.34 6.697 30.52 5.346 32.99 13.784 42.19 7.315 7.97 13.752 15.74 32.071 25.5-63.486-29.48-38.318-50.64-56.656-93.44-11.575-27.02-5.725-36.07-16.391-52.85-10.441-16.41 12.254-39.97 12.745-66.06 0.52-27.64 23.394-56.96 25.832-71.34 2.082-12.28 1.103-14.71 13.319-14.02 1.1549 0.07 2.3187 0.3 3.4457 0.73 0.0958 0.03 0.2129 0.06 0.3085 0.1zm49.011 236.96c-0.129-0.06-0.292-0.08-0.424-0.14-0.24 1-0.496 2-0.828 2.98 3.861 0.72 7.882 2.29 12.208 6.32-2.278-3.51-5.579-6.68-10.956-9.16zm39.966 26.64c1.621 0.65 3.161 1.61 4.755 2.33 1.922 1.26 3.712 2.72 5.343 4.4-0.003 0.01-0.012 0.04-0.013 0.04 0.292 2.49 0.505 4.98 0.708 7.49-4.068-6.15-9.181-11.51-17.763-14.32 2.484-0.98 4.542-0.78 6.469-0.1 0.17 0.06 0.333 0.1 0.501 0.16z"
            />
            <path
                id="path4262"
                style="opacity:.70098;fill:url(#radialGradient3574)"
                inkscape:connector-curvature="0"
                d="m-1.6792 441.26c1.1524 1.43 2.2538 3.02 3.3195 4.7 7.3153 11.47 3.2818 26.88-2.9504 41.89-2.1166 5.1-4.138 12.4-5.3763 18.7-3.8766 2.04-6.1146 5-13.153 3.06 7.675 3.03 10.353 2.59 12.663 0.58 1.8624 15.99 0.0587 44.79-4.099 55.1-0.427 1.06 0.357 3.46 1.8455 6.85-4.1445 2.71-8.7585 4.86-13.858 6.73 5.479-0.76 10.448-2.14 14.912-4.36 5.2042 11.01 15.803 29.28 20.906 44.17 3.17 7.22 0.307 14.06-2.5441 20.9 4.3221-3.84 7.6301-8.67 7.5801-16.89 4.173 4.77 7.769 10.33 10.428 17.1 1.641 7.13 2.412 13.97 0.091 19.77 3.3-4.37 3.204-10.36 3.989-15.95 2.43 2.96 4.834 5.95 6.768 11.62 1.601 10.15-0.578 19.24-5.208 28.91 1.984-2.58 3.653-5.16 4.992-7.83 16.697 17.34 31.977 31.38 44.536 39.18-11.613-9.75-26.652-23.04-35.557-35.98 6.576-0.15 11.451 4.73 15.681 10.24-0.147-5.68-3.914-9.86-8.304-15.3l-9.511-9.15c-0.234-0.17-0.446-0.36-0.597-0.54-0.107-0.13-0.217-0.3-0.286-0.43-0.011-0.02-0.049-0.08-0.063-0.1-0.004 0-0.029-0.04-0.032-0.05 0.001 0 0.007-0.03 0.008-0.04 0.001 0 0.007-0.03 0.008-0.04-0.033-0.09-0.078-0.2-0.102-0.31-0.004-0.02-0.022-0.07-0.024-0.08-0.001-0.01 0.008-0.04 0.008-0.04 0.001-0.01 0.007-0.04 0.008-0.04-0.002-0.04-0.008-0.13-0.007-0.17 0.005-0.04 0.025-0.13 0.032-0.16 0.001-0.01 0.007-0.04 0.008-0.04 0.002-0.01 0.005-0.03 0.008-0.04 0.014-0.03 0.05-0.08 0.064-0.11 0.003-0.01 0.006-0.04 0.008-0.04 0.804-2.06 5.635-3.72 8.869-2.6l30.826 15.56c4.855 8.66 6.729 17.28 7.753 25.97-1.623-1.67-3.377-3.13-5.29-4.39-1.594-0.71-3.133-1.69-4.754-2.34-0.168-0.06-0.333-0.12-0.502-0.18-1.928-0.67-3.977-0.85-6.461 0.14 8.56 2.8 13.663 8.14 17.726 14.27 0.011 0.01 0.021 0.03 0.032 0.04 0.688 8.5 1.143 17.12 3.327 25.91 1.269 5.11 3.267 9.16 5.452 12.39-58.031-2.03-117.22-75.72-132.53-165.31-10.416-60.94 2.133-113.71 29.361-141.27z"
            />
            <path
                id="path4264"
                style="opacity:.45588;fill:url(#radialGradient3576)"
                inkscape:connector-curvature="0"
                d="m89.726 565.52c4.468 1.67 9.179 5.39 13.904 12.66 15.64 24.08 18.3 39.55 33.17 79.4 14.86 39.85 36.43 21.67 28.68 77.79 8.93-7.49 9.8-32.14 8.51-36.16 9.7 0.84 8.49 25.84 3.27 36.18 5.31-7.76 8.64-17.75 7.38-27.92 3.59 5.35 6.2 28.3 8.27 47.53 0.27 2.59 0.24 7.29-1.7 13.65-32.01-14.68-62.45-47.9-81.88-92.08 5.63-1.63 11.04-4.63 14.04-7.03-3.27 2.33-9.07 4.57-14.64 5.66-0.54-1.26-1.06-2.52-1.59-3.81 8.62-2.25 16.99-8.08 20.69-12.35-4.14 4.38-13.31 8.52-21.74 9.77-1.72-4.3-3.33-8.69-4.83-13.18-4.022-12-7.019-23.98-9.051-35.74 5.694-2.2 10.741-6.05 13.561-11.19-2.85 4.69-8.041 8.01-13.812 9.77-0.751-4.51-1.373-8.97-1.841-13.41 6.216-2.06 12.723-3.32 17.923-2.83 0.02-0.14 0.03-0.3 0.05-0.44-0.34-0.13-0.7-0.25-1.05-0.34-4.56-1.22-10.932-0.27-17.101 1.63-0.855-8.87-1.146-17.58-0.902-26 6.761-1.33 12.483-0.69 14.283 3.86 2.17 5.5 5.18 11.95 5 18.69 0.47-7.42-2.33-14.46-4.4-20.44-0.63-1.83-1.85-3.05-3.46-3.77-0.513-0.23-1.052-0.41-1.638-0.54-2.661-0.6-6.061-0.28-9.764 0.67 0.125-3.39 0.369-6.74 0.668-10.03z"
            />
            <path
                id="path4266"
                style="opacity:.70098;fill-opacity:.59375;fill:#1dffff"
                inkscape:connector-curvature="0"
                d="m108.28 600.21c0 0.11-0.01 0.21-0.02 0.32 0.01-0.11 0.01-0.21 0.02-0.32z"
            />
            <path
                id="path4268"
                style="opacity:.70098;fill-opacity:.59375;fill:#1dffff"
                inkscape:connector-curvature="0"
                d="m105.89 608.52c-0.03 0.05-0.04 0.1-0.07 0.15 0.03-0.06 0.04-0.09 0.07-0.15z"
            />
            <path
                id="path4270"
                style="opacity:.70098;fill-opacity:.59375;fill:#1dffff"
                inkscape:connector-curvature="0"
                d="m128.27 658.5c-0.03 0.03-0.03 0.05-0.06 0.08 0.02-0.03 0.04-0.05 0.06-0.08z"
            />
            <path
                id="path4272"
                style="opacity:.45588;fill:url(#radialGradient3578)"
                inkscape:connector-curvature="0"
                d="m-58.652 405.7c1.382 1.2 2.75 2.53 4.095 3.94 10.26 10.74 8.835 27.43 4.939 44.12-1.323 5.67-2.113 13.65-2.239 20.42-3.881 2.79-5.663 6.31-13.918 5.39 9.11 1.91 11.973 1 14.121-1.49 0.135 12.13 1.346 24.79 1.783 35.34 0 0.01-0.008 0.04-0.008 0.04 0.002 0.03 0.022 0.06 0.024 0.09 0 0.01-0.008 0.03-0.008 0.04-0.059 0.87-0.096 1.73-0.112 2.59-0.262 13.91-6.837 27.09-11.339 38.87-9.185-20.74-14.224-48.59-13.008-78.96 1.074-26.85 6.873-51.3 15.67-70.39z"
            />
            <path
                id="path4274"
                style="opacity:.45588;fill:url(#radialGradient3580)"
                inkscape:connector-curvature="0"
                d="m-94.521 424.97c0.062 0.03 0.121 0.08 0.183 0.12 0.073 0.04 0.15 0.08 0.223 0.13 0.091 0.05 0.164 0.11 0.255 0.17 0.01 0.01 0.03 0 0.04 0.01 0.035 0.02 0.076 0.04 0.111 0.06 0.05 0.04 0.094 0.08 0.144 0.12 0.046 0.03 0.105 0.04 0.151 0.07 0.015 0.01 0.017 0.04 0.032 0.05 0.028 0.02 0.043 0.03 0.071 0.05 0.011 0.01 0.03 0 0.04 0.01 0.036 0.03 0.076 0.04 0.112 0.07 0.147 0.1 0.288 0.19 0.437 0.29 0.095 0.07 0.192 0.16 0.287 0.23 0.083 0.06 0.171 0.11 0.254 0.17 0.032 0.03 0.08 0.04 0.112 0.07 0.014 0.01 0.017 0.03 0.032 0.04 0.024 0.02 0.047 0.04 0.071 0.06 0.221 0.17 0.459 0.34 0.685 0.51 0.053 0.04 0.089 0.07 0.143 0.12 0.049 0.03 0.093 0.07 0.143 0.11 0.022 0.01 0.05 0.04 0.072 0.05 0.025 0.02 0.046 0.04 0.071 0.06 0.041 0.03 0.063 0.07 0.104 0.1 0.019 0.02 0.052 0.04 0.071 0.06 0.044 0.04 0.099 0.08 0.143 0.11 0.051 0.04 0.093 0.07 0.144 0.11 0.022 0.02 0.049 0.04 0.071 0.06 0.026 0.02 0.046 0.03 0.072 0.06 0.041 0.03 0.062 0.06 0.103 0.1 0.02 0.02 0.052 0.04 0.072 0.06 0.045 0.03 0.098 0.07 0.143 0.11 0.036 0.03 0.068 0.07 0.104 0.1 0.105 0.09 0.214 0.18 0.318 0.27 0.034 0.04 0.069 0.08 0.103 0.11 0.103 0.09 0.217 0.17 0.318 0.27 0.034 0.03 0.07 0.07 0.104 0.1 0.168 0.17 0.313 0.34 0.477 0.52 0.032 0.03 0.071 0.07 0.103 0.1 0.292 0.31 0.566 0.63 0.843 0.96 0.03 0.04 0.072 0.07 0.103 0.1 0.122 0.15 0.246 0.3 0.365 0.45 0.03 0.04 0.074 0.07 0.104 0.11 0.029 0.03 0.026 0.09 0.055 0.13 0.03 0.04 0.074 0.07 0.104 0.1 0.018-0.07 0.022-0.12 0.04-0.19 0.127-0.49 0.251-0.98 0.379-1.46 0.121 0.06 0.228 0.14 0.327 0.23-0.154 0.58-0.312 1.17-0.473 1.76-3.818 14.1-9.525 32.31-10.655 54.03-0.001 0.02-0.007 0.03-0.008 0.04-0.001 0.02-0.007 0.03-0.008 0.04-0.001 0.02-0.008 0.03-0.008 0.04-0.012 0.24-0.007 0.47-0.018 0.71-0.001 0.01-0.008 0.02-0.008 0.04-0.001 0.01-0.008 0.02-0.008 0.04-0.001 0.01-0.008 0.02-0.009 0.04-0.01 0.23-0.008 0.46-0.018 0.7 0 0.01-0.007 0.02-0.008 0.04 0 0.01-0.007 0.02-0.008 0.04-0.006 0.15-0.004 0.3-0.009 0.45-0.01 0.25-0.026 0.53-0.034 0.78-0.018 0.56-0.042 1.13-0.053 1.69-0.004 0.14 0.001 0.28-0.002 0.42-0.002 0.14 0.001 0.27-0.001 0.41-0.005 0.31-0.013 0.61-0.019 0.91-0.019 1.21-0.035 2.39-0.058 3.56-0.001 0.01-0.008 0.03-0.008 0.04-0.006 0.28-0.005 0.59-0.011 0.87-0.014 0.58-0.047 1.16-0.061 1.73-0.007 0.28 0.004 0.54-0.003 0.83-0.015 0.57-0.037 1.13-0.053 1.69s-0.036 1.14-0.053 1.69c-0.016 0.55-0.019 1.07-0.036 1.61-0.036 1.08-0.076 2.17-0.114 3.21-0.558 15.44-1.382 27.15-1.649 36.31-0.001 0.01-0.008 0.03-0.008 0.04-0.038 1.23-0.043 2.42-0.059 3.56-0.002 0.14-0.008 0.31-0.009 0.45-0.003 0.29-0.001 0.55-0.003 0.83 0 0.14-0.001 0.28-0.001 0.42-0.001 0.41-0.007 0.84-0.004 1.24 0.001 0.14-0.003 0.28-0.001 0.42 0.005 0.53 0.006 1.02 0.019 1.54 0.007 0.25 0.037 0.54 0.046 0.79 0.012 0.38 0.011 0.72 0.028 1.09 0.012 0.24 0.04 0.52 0.054 0.76 0.013 0.24 0.014 0.43 0.03 0.67 0.001 0.01-0.009 0.02-0.008 0.04 0.016 0.23 0.051 0.44 0.069 0.67 0.027 0.35 0.053 0.68 0.085 1.02 0.022 0.22 0.045 0.45 0.07 0.67 0.024 0.23 0.051 0.43 0.077 0.64 0.159 1.3 0.363 2.54 0.619 3.7 0.096 0.43 0.182 0.87 0.276 1.3 0.003 0.02 0.027 0.03 0.031 0.05 0.09 0.4 0.164 0.81 0.252 1.21 0.013 0.06 0.034 0.12 0.047 0.18 0.089 0.4 0.164 0.81 0.252 1.21 0.033 0.15 0.085 0.29 0.118 0.44 0.013 0.06 0.034 0.11 0.047 0.17 0.032 0.15 0.047 0.29 0.079 0.43 0.015 0.07 0.023 0.15 0.039 0.22 0.029 0.13 0.057 0.26 0.087 0.39 0.033 0.15 0.085 0.29 0.118 0.44 0.013 0.06 0.034 0.12 0.047 0.17 0.019 0.09 0.013 0.18 0.031 0.26 0.027 0.12 0.068 0.23 0.095 0.35 0.02 0.09 0.051 0.18 0.071 0.26 0.024 0.11 0.039 0.2 0.063 0.31 0.024 0.1 0.039 0.2 0.063 0.3 0.023 0.1 0.04 0.21 0.063 0.3 0.071 0.31 0.156 0.62 0.228 0.92 0.021 0.09 0.05 0.18 0.071 0.27 0.028 0.11 0.067 0.23 0.095 0.35 0.017 0.07 0.021 0.14 0.039 0.21 0.032 0.13 0.054 0.26 0.086 0.39 0.017 0.07 0.023 0.15 0.04 0.22 0.037 0.15 0.12 0.3 0.158 0.45 0.01 0.04 0.005 0.08 0.015 0.12 0.036 0.15 0.043 0.29 0.079 0.43 0.019 0.08 0.059 0.15 0.079 0.23 0.007 0.03 0.016 0.06 0.024 0.09 0.01 0.04 0.005 0.08 0.015 0.12 0.014 0.06 0.042 0.09 0.056 0.14 0.011 0.04 0.003 0.08 0.015 0.13 0.015 0.06 0.032 0.11 0.047 0.17 0.019 0.07 0.061 0.16 0.08 0.23 0.007 0.02 0.016 0.06 0.023 0.08 0.011 0.04 0.005 0.09 0.016 0.13 0.023 0.09 0.048 0.18 0.071 0.27 0.041 0.15 0.068 0.32 0.11 0.47 0.005 0.02 0.027 0.03 0.032 0.05 0.016 0.06 0.031 0.12 0.047 0.18 0.012 0.04 0.043 0.09 0.055 0.13 0.004 0.01-0.011 0.03-0.008 0.04 0.051 0.18 0.131 0.36 0.182 0.54 0.003 0.01-0.011 0.03-0.008 0.04 0.025 0.09 0.046 0.17 0.071 0.26 0.003 0.01-0.011 0.03-0.008 0.04 0.054 0.19 0.118 0.39 0.174 0.58 0.028 0.09 0.082 0.17 0.111 0.27 0.062 0.21 0.101 0.4 0.165 0.61 0.029 0.1 0.042 0.17 0.071 0.27 0.005 0.01 0.027 0.03 0.032 0.04 0.025 0.08 0.046 0.19 0.071 0.27 0.036 0.11 0.057 0.23 0.094 0.35 0.023 0.07 0.057 0.15 0.08 0.22 0.008 0.03 0.014 0.06 0.023 0.09 0.027 0.08 0.092 0.15 0.119 0.23 0.004 0.01-0.012 0.03-0.008 0.04 0.065 0.2 0.138 0.42 0.206 0.62 0.033 0.11 0.068 0.21 0.102 0.32 0.018 0.05 0.029 0.12 0.048 0.17 0.015 0.05 0.04 0.09 0.055 0.14 0.026 0.07 0.053 0.14 0.079 0.22 0.01 0.03 0.014 0.06 0.024 0.09 0.014 0.04 0.001 0.08 0.015 0.13 0.022 0.06 0.066 0.12 0.087 0.18 0.014 0.04 0.003 0.09 0.016 0.13 0.022 0.06 0.065 0.12 0.087 0.18 0.011 0.03 0.013 0.06 0.024 0.09 0.026 0.07 0.053 0.15 0.079 0.22 0.01 0.03 0.014 0.06 0.024 0.09 0.026 0.07 0.052 0.15 0.079 0.22 0.01 0.03 0.013 0.06 0.023 0.09 0.027 0.08 0.052 0.15 0.079 0.22 0.017 0.05 0.039 0.09 0.056 0.14 0.022 0.06 0.065 0.12 0.087 0.18 0.004 0.01-0.012 0.03-0.008 0.04 0.034 0.1 0.076 0.18 0.111 0.28 0.006 0.01 0.025 0.03 0.031 0.04 0.033 0.09 0.039 0.18 0.071 0.27 0.045 0.11 0.098 0.2 0.143 0.32 0.12 0.31 0.223 0.62 0.348 0.94 0.066 0.17 0.123 0.32 0.19 0.49 0.045 0.12 0.097 0.21 0.143 0.32 0.018 0.05 0.037 0.09 0.055 0.14 0.035 0.09 0.075 0.18 0.111 0.27 0.007 0.02 0.024 0.03 0.032 0.05 0.035 0.09 0.074 0.18 0.111 0.27 0.007 0.02 0.024 0.03 0.031 0.05 0.036 0.08 0.035 0.17 0.071 0.26 0.059 0.14 0.146 0.27 0.206 0.42 0.03 0.07 0.049 0.15 0.079 0.22 0.016 0.04 0.049 0.06 0.064 0.1 0.031 0.07 0.048 0.15 0.079 0.22 0.018 0.04 0.037 0.09 0.055 0.13 0.027 0.07 0.061 0.13 0.088 0.19 0.02 0.05 0.035 0.09 0.055 0.13 0.027 0.07 0.06 0.13 0.087 0.19 0.021 0.04 0.035 0.09 0.056 0.13 0.027 0.07 0.059 0.12 0.087 0.19 0.023 0.05 0.024 0.12 0.047 0.17 0.044 0.1 0.107 0.18 0.151 0.28 0.008 0.02 0.024 0.03 0.032 0.05 0.02 0.05 0.034 0.09 0.055 0.14 0.03 0.06 0.057 0.11 0.087 0.18 0.024 0.05 0.024 0.12 0.047 0.18 0.028 0.06 0.06 0.12 0.088 0.18 0.021 0.05 0.034 0.09 0.055 0.14 0.078 0.16 0.15 0.33 0.23 0.5 0.008 0.02 0.024 0.03 0.032 0.05 0.04 0.08 0.07 0.18 0.11 0.27 0.016 0.03 0.049 0.06 0.064 0.09 0.012 0.03 0.011 0.07 0.024 0.09 0.042 0.09 0.116 0.15 0.158 0.24 0.013 0.03 0.011 0.06 0.024 0.09 0.044 0.09 0.107 0.19 0.151 0.28 0.005 0.01-0.014 0.03-0.008 0.04 0.051 0.11 0.09 0.21 0.142 0.32 0.008 0.01 0.024 0.03 0.032 0.05 0.049 0.1 0.101 0.17 0.151 0.28 0.021 0.04 0.033 0.09 0.055 0.13 0.096 0.2 0.195 0.4 0.293 0.6 0.116 0.23 0.238 0.46 0.357 0.7 0.009 0.01 0.023 0.03 0.032 0.04 0.111 0.22 0.211 0.43 0.325 0.65 0.009 0.02 0.023 0.03 0.032 0.05 0.053 0.1 0.128 0.22 0.182 0.33 0.009 0.01 0.023 0.03 0.032 0.04 0.053 0.11 0.088 0.22 0.142 0.32 0.075 0.15 0.162 0.32 0.238 0.47 0.046 0.08 0.113 0.15 0.159 0.24 0.023 0.04 0.033 0.09 0.056 0.13 0.041 0.08 0.077 0.16 0.118 0.23 0.052 0.1 0.099 0.19 0.151 0.28 0.018 0.04 0.046 0.07 0.064 0.1 0.025 0.05 0.03 0.09 0.055 0.13 0.043 0.08 0.076 0.16 0.119 0.24 0.059 0.1 0.123 0.22 0.182 0.32 0.01 0.02 0.023 0.04 0.032 0.05 0.031 0.06 0.056 0.13 0.087 0.19 0.037 0.06 0.091 0.12 0.127 0.19 0.036 0.06 0.091 0.12 0.127 0.19 0.033 0.06 0.055 0.12 0.088 0.18 0.041 0.08 0.077 0.16 0.119 0.23 0.028 0.06 0.066 0.1 0.095 0.15 0.044 0.08 0.074 0.15 0.119 0.23 0.028 0.05 0.066 0.09 0.095 0.14 0.047 0.09 0.063 0.19 0.111 0.28 0.027 0.04 0.068 0.09 0.095 0.14 0.124 0.22 0.278 0.44 0.405 0.66 0.015 0.03 0.008 0.06 0.023 0.09 0.064 0.11 0.119 0.22 0.183 0.33 0.018 0.03 0.046 0.06 0.063 0.09 0.06 0.11 0.131 0.19 0.191 0.29 0.016 0.03 0.008 0.06 0.024 0.09 0.146 0.25 0.318 0.5 0.468 0.76 0.006 0.01-0.014 0.03-0.008 0.04 0.082 0.14 0.162 0.28 0.246 0.42-16.006-23.99-26.1-59.88-25.87-99.99 0.16-29.11 5.72-55.98 14.979-77.63z"
            />
            <path
                id="path4276"
                style="opacity:.45588;fill:url(#radialGradient3582)"
                inkscape:connector-curvature="0"
                d="m-37.61 652.19c0.683 2.73 1.385 5.62 2.059 8.69 6.698 30.52 5.354 32.98 13.793 42.17 7.035 7.68 13.23 15.21 29.989 24.45-5.5451-2.64-10.414-5.17-14.638-7.71-0.0017 0.01-0.0056 0.03-0.0061 0.03 4.1191 3.3 9.1796 7.74 15.67 14.1 28.942 28.38 49.095 28.77 65.4 74.24 10.846 30.25 18.683 55.43 24.647 77.37 14.586 6.8 29.626 12.96 45.026 18.39l1.33-0.73c-3.14-43.21-20.33-92.74-51.157-139.29-37.213-56.19-86.167-95.78-132.11-111.71z"
            />
          </g
          >
        </g
        >
        <g
            id="layer1-7"
            inkscape:label="Layer 1"
            transform="translate(-292.09 -169.69)"
          >
          <g
              id="g14"
              transform="matrix(1.25 0 0 -1.25 145.71 1110.2)"
            >
            <g
                id="g16"
                clip-path="url(#clipPath18-1)"
              >
              <g
                  id="g22"
                  transform="translate(554.43 299.61)"
                >
                <path
                    id="path4750"
                    style="stroke:#0fb55e;stroke-width:6.4;fill:#0fb55e"
                    inkscape:connector-curvature="0"
                    d="m0 0c0-85.29-69.14-154.43-154.43-154.43-85.288 0-154.43 69.139-154.43 154.43 0 85.289 69.14 154.43 154.43 154.43s154.43-69.141 154.43-154.43"
                />
                <path
                    id="path24"
                    style="fill:#7cb7ed"
                    inkscape:connector-curvature="0"
                    d="m0 0c0-85.29-69.14-154.43-154.43-154.43-85.288 0-154.43 69.139-154.43 154.43 0 85.289 69.14 154.43 154.43 154.43s154.43-69.141 154.43-154.43"
                />
              </g
              >
              <g
                  id="g26"
                  transform="translate(447 151.47)"
                >
                <path
                    id="path28"
                    style="fill:#ffffff"
                    inkscape:connector-curvature="0"
                    d="m0 0s-48.604-15.479-97.901 1.301c0 0 28.344 4.175 41.625 11.737 13.281 7.563 56.276-13.038 56.276-13.038"
                />
              </g
              >
              <g
                  id="g30"
                  transform="translate(487.95 212.66)"
                >
                <path
                    id="path32"
                    style="fill:#0fb55e"
                    inkscape:connector-curvature="0"
                    d="m0 0s-0.919 26.656-1.379 39.064c-0.46 12.409 4.136 20.682-1.839 32.171-5.974 11.49-1.379 20.682-6.893 21.141-5.515 0.459-22.979 3.677-32.63 0-9.652-3.677-30.793 12.409-31.252 22.979s-3.676 18.383-3.676 18.383 11.949 19.262 15.166 18.593 3.677 12.199 5.975 13.118c2.298 0.92 26.655 7.354 33.549 7.354 6.893 0 1.838-7.354 1.838-7.354l21.141-7.81 3.677 8.273 18.383-5.515s-0.459 11.03-4.596 12.409c-4.137 1.378-21.601 9.651-21.601 9.651s3.678-6.894 1.839-8.732c-1.839-1.839-7.813 8.732-7.813 8.732l-13.327 5.055s-9.192-1.379-14.248-3.217c-5.055-1.838-7.353-10.57-7.353-10.57s-9.191-4.596-15.166-3.217c-5.975 1.378-4.137 12.868-4.137 12.868s11.03 0.919 11.949 4.136-7.812 9.192-7.812 9.192l6.893 3.217 6.434 11.232 10.111-1.122 3.217 11.95-0.807 11.806s67.293-31.638 88.51-83.995l-10.953 6.928 4.596-10.111 1.838 1.379 5.515-10.11v-8.273l-2.757-12.71s-17.515 29.546-25.737 37.068c0 0 11.957-27.574 26.197-41.822l4.595 4.754v-15.324-6.894l-4.136-9.652-5.055-15.166-0.92-11.949v-14.247l-6.894-6.893-6.893-5.056v-5.975l-6.894-9.203-9.651-10.11-9.651-6.435h-7.353z"
                />
              </g
              >
              <g
                  id="g34"
                  transform="translate(355.05 160.34)"
                >
                <path
                    id="path36"
                    style="fill:#0fb55e"
                    inkscape:connector-curvature="0"
                    d="m0 0-9.191 11.949 1.379 6.435h5.974l-1.274 6.589 1.734 8.577 1.378 6.433 5.199 5.407s11.807 4.705 10.428 21.25c0 0 10.109 13.788 7.812 21.14-2.298 7.353-16.145 6.894-16.145 6.894l-22.919 9.651s-1.838 9.652-8.272 10.571c-6.435 0.918-8.273-3.677-11.031 0-2.758 3.676-6.576 9.194-13.858 9.652s-16.474 6.432-16.474 6.432-1.379 5.055-9.191 3.217c0 0-5.056 5.056-2.758 15.167 0 0-0.459 5.515-7.354 3.217 0 0-5.514 5.975-7.353 5.975-1.838 0-4.596 17.464 3.678 25.277 0 0 7.812 9.191 16.545 3.676 0 0-0.461-8.732 0.918-12.868s4.136 5.975 4.136 5.975l0.46 12.868s5.975 2.758 11.031 7.353c5.054 4.596 3.216 10.571 10.11 15.166 6.893 4.596 8.272 0 8.272 0l0.459 7.813h6.435l15.626 6.894s-7.354-0.46-10.111 3.677l19.761 10.57v5.974l-1.355 12.409-4.619-5.515-0.918 5.515-8.733 1.121h-3.216l-7.354-3.419-0.46-4.596-8.272-3.676-4.137 4.136 3.218 4.136 3.216 3.419 8.566 11.597s-56.809-31.864-73.36-88.241c0 0-0.925-17.772-1.384-24.206-0.46-6.434 5.054-12.408 5.054-12.408h5.056l1.838-4.596 4.136-1.379 2.299-1.379 1.378-3.583 1.838-6.528 4.137-0.92 2.297-4.135 2.758-0.46-0.919 3.676h3.677l1.378-3.216-4.136-3.217-1.379-3.218-0.459-7.352 0.459-5.516 0.46-5.055-4.136-2.298 0.918-5.055 0.461-3.217v-5.056l-2.299-0.919 16.545-22.519 5.056-1.839 3.216-0.459 5.056-1.839 4.137-7.812s13.327-29.415 15.166-33.55c1.838-4.133 21.141-21.138 29.412-19.759"
                />
              </g
              >
              <g
                  id="g38"
                  transform="translate(400 455.04)"
                >
                <path
                    id="path40"
                    style="fill:#ffffff"
                    inkscape:connector-curvature="0"
                    d="m0 0c51.067 0 79.29-21.887 79.29-21.887s-18.978-8.148-48.391 0c0 0-22.689-1.096-38.656-7.819-15.966-6.723-24.437 10.924-24.437 10.924s-13.981-9.608-38.049 1.919c0 0 31.781 16.863 70.243 16.863"
                />
              </g
              >
            </g
            >
          </g
          >
        </g
        >
      </g
      >
    </g
    >
  </g
  >
  <metadata
    >
    <rdf:RDF
      >
      <cc:Work
        >
        <dc:format
          >image/svg+xml</dc:format
        >
        <dc:type
            rdf:resource="http://purl.org/dc/dcmitype/StillImage"
        />
        <cc:license
            rdf:resource="http://creativecommons.org/licenses/publicdomain/"
        />
        <dc:publisher
          >
          <cc:Agent
              rdf:about="http://openclipart.org/"
            >
            <dc:title
              >Openclipart</dc:title
            >
          </cc:Agent
          >
        </dc:publisher
        >
      </cc:Work
      >
      <cc:License
          rdf:about="http://creativecommons.org/licenses/publicdomain/"
        >
        <cc:permits
            rdf:resource="http://creativecommons.org/ns#Reproduction"
        />
        <cc:permits
            rdf:resource="http://creativecommons.org/ns#Distribution"
        />
        <cc:permits
            rdf:resource="http://creativecommons.org/ns#DerivativeWorks"
        />
      </cc:License
      >
    </rdf:RDF
    >
  </metadata
  >
</svg
>
