<?xml version="1.0" encoding="UTF-8" standalone="no"?>
<!-- Created with Inkscape (http://www.inkscape.org/) -->
<svg
    xmlns:inkscape="http://www.inkscape.org/namespaces/inkscape"
    xmlns:rdf="http://www.w3.org/1999/02/22-rdf-syntax-ns#"
    xmlns="http://www.w3.org/2000/svg"
    xmlns:sodipodi="http://sodipodi.sourceforge.net/DTD/sodipodi-0.dtd"
    xmlns:cc="http://creativecommons.org/ns#"
    xmlns:xlink="http://www.w3.org/1999/xlink"
    xmlns:dc="http://purl.org/dc/elements/1.1/"
    xmlns:svg="http://www.w3.org/2000/svg"
    xmlns:ns1="http://sozi.baierouge.fr"
    id="svg2"
    sodipodi:docname="one home.svg"
    viewBox="0 0 660 290"
    version="1.1"
    inkscape:version="0.48.3.1 r9886"
  >
  <title
      id="title4115"
    >One home</title
  >
  <defs
      id="defs4"
    >
    <linearGradient
        id="linearGradient7124-5"
      >
      <stop
          id="stop7126-2"
          style="stop-color:#69f931"
          offset="0"
      />
      <stop
          id="stop7128-3"
          style="stop-color:#f1fee4;stop-opacity:.043478"
          offset="1"
      />
    </linearGradient
    >
    <filter
        id="filter14172"
        height="1.3909"
        width="1.102"
        y="-.19547"
        x="-.051002"
        color-interpolation-filters="sRGB"
        inkscape:collect="always"
      >
      <feGaussianBlur
          id="feGaussianBlur14174"
          stdDeviation="8.8998435"
          inkscape:collect="always"
      />
    </filter
    >
    <filter
        id="filter15171"
        height="1.3085"
        width="1.1375"
        y="-.15424"
        x="-.068749"
        color-interpolation-filters="sRGB"
        inkscape:collect="always"
      >
      <feGaussianBlur
          id="feGaussianBlur15173"
          stdDeviation="14.5275"
          inkscape:collect="always"
      />
    </filter
    >
    <linearGradient
        id="linearGradient4037"
        y2="659.36"
        gradientUnits="userSpaceOnUse"
        x2="345.29"
        y1="216.6"
        x1="345.29"
        inkscape:collect="always"
      >
      <stop
          id="stop4200-4"
          style="stop-color:#588cb5"
          offset="0"
      />
      <stop
          id="stop4202-9"
          style="stop-color:#438cc4"
          offset="1"
      />
    </linearGradient
    >
    <radialGradient
        id="radialGradient4039"
        gradientUnits="userSpaceOnUse"
        cy="416.94"
        cx="303.89"
        gradientTransform="matrix(.93426 0 0 1 22.813 -2.8011e-7)"
        r="224.11"
        inkscape:collect="always"
      >
      <stop
          id="stop11165-1"
          style="stop-color:#83c1ef"
          offset="0"
      />
      <stop
          id="stop11167-2"
          style="stop-color:#729ec0;stop-opacity:0"
          offset="1"
      />
    </radialGradient
    >
    <radialGradient
        id="radialGradient4041"
        gradientUnits="userSpaceOnUse"
        cy="404.75"
        cx="359.44"
        gradientTransform="matrix(2.5183 -.00012964 0 1.2227 -1651.6 1520.3)"
        r="211.31"
        inkscape:collect="always"
      >
      <stop
          id="stop10086-2"
          style="stop-color:#e2ebf3;stop-opacity:.86087"
          offset="0"
      />
      <stop
          id="stop10088-7"
          style="stop-color:#e2ebf3;stop-opacity:.22745"
          offset="1"
      />
    </radialGradient
    >
    <radialGradient
        id="radialGradient4043"
        gradientUnits="userSpaceOnUse"
        cy="610.38"
        cx="351.84"
        gradientTransform="matrix(1.2586 0 0 .24468 -2665.2 2851.1)"
        r="174.5"
        inkscape:collect="always"
      >
      <stop
          id="stop14178"
          style="stop-color:#ffffff"
          offset="0"
      />
      <stop
          id="stop14180"
          style="stop-color:#ffffff;stop-opacity:0"
          offset="1"
      />
    </radialGradient
    >
    <radialGradient
        id="radialGradient4045"
        xlink:href="#linearGradient7124-5"
        gradientUnits="userSpaceOnUse"
        cy="218.3"
        cx="305.9"
        gradientTransform="matrix(.21946 2.3104 -4.4795 .40279 44.906 1125.5)"
        r="86.902"
        inkscape:collect="always"
    />
    <radialGradient
        id="radialGradient4047"
        xlink:href="#linearGradient7124-5"
        gradientUnits="userSpaceOnUse"
        cy="428.09"
        cx="415.86"
        gradientTransform="matrix(-.78854 3.2932 -5.636 -1.2776 2149.5 1519.6)"
        r="82.42"
        inkscape:collect="always"
    />
  </defs
  >
  <sodipodi:namedview
      id="base"
      bordercolor="#666666"
      inkscape:pageshadow="2"
      inkscape:window-y="-8"
      pagecolor="#ffffff"
      inkscape:window-height="706"
      inkscape:window-maximized="1"
      inkscape:zoom="0.44076323"
      inkscape:window-x="-8"
      showgrid="false"
      borderopacity="1.0"
      inkscape:current-layer="layer1"
      inkscape:cx="326.825"
      inkscape:cy="390.10942"
      inkscape:window-width="1366"
      inkscape:pageopacity="0.0"
      inkscape:document-units="px"
    >
    <inkscape:grid
        id="grid3770"
        enabled="true"
        visible="true"
        snapvisiblegridlinesonly="true"
        type="xygrid"
        empspacing="5"
    />
  </sodipodi:namedview
  >
  <g
      id="layer1"
      inkscape:label="Layer 1"
      inkscape:groupmode="layer"
      transform="translate(0 -762.36)"
    >
    <g
        id="text3901"
        style="fill:#336699"
        transform="scale(.90718 1.1023)"
      >
      <path
          id="path4107"
          style="fill:#336699"
          d="m69.813 847.64c-0.000079-0.81384-0.18506-2.0347-0.55495-3.6627-0.37005-1.6278-0.81401-3.4961-1.3319-5.605-0.51803-2.1087-1.11-4.3655-1.7758-6.7704-0.66602-2.4047-1.258-4.754-1.7758-7.0479-0.51803-2.2937-0.96199-4.4395-1.3319-6.4374-0.37004-1.9977-0.55502-3.6626-0.55495-4.9946-0.000071-1.7017 0.48089-3.0891 1.4429-4.1621 0.96184-1.0728 2.1827-1.9052 3.6627-2.4973 1.4798-0.59183 3.0707-0.99879 4.7726-1.2209 1.7018-0.22185 3.3296-0.33284 4.8836-0.33297 1.9237 0.00013 3.7921 0.53658 5.605 1.6094 1.8128 1.073 3.0521 2.9784 3.7182 5.716 0.81384 2.8859 1.4983 5.7901 2.0533 8.7128 0.55486 2.9229 1.0543 5.7716 1.4984 8.5463 0.44386 2.7749 0.86933 5.4571 1.2764 8.0468 0.40686 2.5899 0.83233 4.9947 1.2764 7.2144 0.44386 1.7759 1.0173 3.1818 1.7204 4.2176 0.70284 1.036 1.5538 1.8314 2.5528 2.3863 0.99881 0.55503 2.0717 0.9065 3.2187 1.0544 1.1468 0.14806 2.3862 0.22206 3.7182 0.22198 1.4798 0.00008 3.0706-0.14791 4.7726-0.44396 1.7017-0.2959 3.3666-0.44389 4.9946-0.44397 1.0358 0.00008 2.0532 0.16657 3.0522 0.49946 0.99879 0.33305 1.9052 0.925 2.7193 1.7758 0.8138 0.85101 1.4612 2.0164 1.9423 3.4962 0.48082 1.48 0.7213 3.3668 0.72143 5.6605-0.00013 1.9239-0.37009 3.5333-1.1099 4.8281-0.74007 1.295-2.146 2.1644-4.2176 2.6083l-3.9957 0.88793c-1.258 0.22204-2.4234 0.38852-3.4962 0.49945-1.073 0.11105-2.4234 0.24054-4.0512 0.38847-3.4778 0.37003-5.2167 1.8869-5.2166 4.5506-0.00011 0.22204 0.14788 1.221 0.44396 2.9968 0.29587 1.7759 0.68433 3.9772 1.1654 6.6039 0.48085 2.6268 1.0173 5.5126 1.6094 8.6573 0.59183 3.1448 1.1653 6.16 1.7204 9.0457 0.55484 2.8858 1.0543 5.4571 1.4984 7.7138 0.44385 2.2568 0.77682 3.8662 0.99892 4.8281 0.36985 1.6279 0.66583 2.8858 0.88792 3.7737 0.22187 0.88794 0.33286 2.1088 0.33297 3.6627-0.00011 1.1839-0.33308 2.3493-0.99891 3.4962-0.66606 1.1469-1.6465 2.1643-2.9412 3.0522-1.295 0.88793-2.8674 1.6094-4.7171 2.1643-1.85 0.55495-3.9588 0.83243-6.3265 0.83243-2.5899 0-4.4582-0.79543-5.605-2.3863-1.147-1.5909-1.9424-3.4222-2.3863-5.494-0.96201-3.8477-1.8684-7.8063-2.7193-11.876-0.85102-4.0696-1.6649-8.1023-2.4418-12.098-0.77702-3.9956-1.517-7.8988-2.2198-11.71-0.70303-3.8106-1.3505-7.4548-1.9423-10.933-0.37005-1.6278-1.036-2.8302-1.9978-3.6072-0.962-0.77687-2.1829-1.1653-3.6627-1.1654-5.0316 0.00006-10.082 0.16655-15.15 0.49946-5.0686 0.33303-10.045 0.6105-14.928 0.83243-1.7019 0.14804-3.0338 0.70299-3.9957 1.6649-0.96196 0.96197-1.4429 2.2199-1.4429 3.7737-0.000044 3.4778 0.03695 6.9184 0.11099 10.322 0.07395 3.4038 0.11095 6.8814 0.11099 10.433-0.000044 4.0697-0.05554 8.2503-0.16649 12.542-0.11103 4.2916-0.27752 8.4353-0.49946 12.431-0.14803 1.4799-0.57349 2.7008-1.2764 3.6627-0.70298 0.96192-1.5909 1.7389-2.6638 2.3308-1.0729 0.59194-2.2938 0.99891-3.6627 1.2209-1.3689 0.22198-2.7563 0.33297-4.1621 0.33297-3.4777 0-6.1785-0.57345-8.1023-1.7204-1.9239-1.1469-2.8858-3.0892-2.8858-5.827-0.00002-4.1436 0.11097-8.4723 0.33297-12.986 0.22196-4.5136 0.33295-9.0642 0.33297-13.652-0.000021-3.1077-0.03702-6.123-0.11099-9.0457-0.07401-2.9227-0.11101-5.938-0.11099-9.0457-0.000021-1.4058-0.31449-2.4602-0.94342-3.1632-0.62897-0.70289-1.3874-1.2763-2.2753-1.7204-0.8757-0.45-1.8746-0.87-2.9845-1.28s-2.1089-1.02-2.9968-1.83c-0.8879-0.82-1.6463-2-2.2753-3.55-0.62894-1.56-0.94341-3.7-0.9434-6.44-0.0000082863-1.48 0.27747-2.65 0.83243-3.5 0.55494-0.85086 1.2579-1.5353 2.1088-2.0533 0.85092-0.51788 1.7573-0.94335 2.7193-1.2764 0.9619-0.3329 1.8683-0.75836 2.7193-1.2764 0.85091-0.51788 1.5538-1.1653 2.1088-1.9423 0.55493-0.77685 0.83241-1.9053 0.83243-3.3852-0.00002-0.88784-0.03702-1.9422-0.11099-3.1632-0.07401-1.2208-0.14801-2.3862-0.22198-3.4962-0.07401-1.1098-0.14801-2.0902-0.22198-2.9412-0.07401-0.85083-0.11101-1.4243-0.11099-1.7204-0.000019-2.5157 0.35145-4.532 1.0544-6.049 0.70292-1.5168 1.5723-2.6637 2.6083-3.4407 1.0359-0.77684 2.2013-1.2948 3.4962-1.5539 1.2949-0.25888 2.5343-0.38837 3.7182-0.38847 4.4396 0.0001 7.5288 0.83253 9.2677 2.4973 1.7388 1.665 2.6822 4.0882 2.8303 7.2699l0.44396 11.654c0.14794 1.7759 0.6289 3.1263 1.4429 4.0512 0.81389 0.925 2.1458 1.3875 3.9957 1.3874l25.195-0.88792c2.1457-0.14791 3.5331-0.73986 4.1621-1.7758 0.62887-1.0358 0.94334-2.5897 0.94342-4.6616z"
      />
      <path
          id="path4109"
          style="fill:#336699"
          d="m236.52 945.65c-8.0654-0.00001-15.483-1.3689-22.254-4.1066-6.7705-2.7378-12.597-6.567-17.481-11.488-4.8836-4.9206-8.6943-10.785-11.432-17.592-2.7378-6.8074-4.1067-14.318-4.1066-22.531-0.00001-4.4396 0.38846-8.7127 1.1654-12.819 0.77693-4.1066 1.8313-7.9358 3.1632-11.488 0.59194-1.4058 0.88791-2.4047 0.88793-2.9968-0.00002-0.73987-0.185-1.4428-0.55496-2.1088-0.36998-0.66587-0.77694-1.3688-1.2209-2.1088-0.44397-0.73986-0.85094-1.5168-1.2209-2.3308-0.36998-0.81386-0.55496-1.7388-0.55495-2.7748-0.00001-3.1076 1.7758-6.1599 5.3276-9.1567 3.5517-2.9967 8.2503-5.6604 14.096-7.9913 5.8455-2.3307 12.468-4.2175 19.867-5.6605 7.3993-1.4428 14.984-2.1642 22.753-2.1643 9.5451 0.00011 18.147 1.221 25.805 3.6627 7.6582 2.4419 14.17 5.9381 19.534 10.489 5.3644 4.5507 9.4896 10.082 12.375 16.593 2.8856 6.5115 4.3285 13.837 4.3286 21.976-0.00013 9.1013-1.813 17.592-5.4385 25.472-3.6258 7.8804-8.6019 14.706-14.928 20.478-6.3266 5.7715-13.781 10.322-22.365 13.652-8.5834 3.3297-17.833 4.9946-27.748 4.9946zm48.17-60.268c-0.00011-5.7715-0.99903-10.951-2.9968-15.539-1.9979-4.5876-4.8837-8.4537-8.6573-11.599-3.7738-3.1446-8.4169-5.5494-13.929-7.2144-5.5126-1.6648-11.747-2.4972-18.702-2.4973-12.209 0.00008-21.403 3.0893-27.581 9.2677-6.1785 6.1785-9.2677 15.372-9.2677 27.581-0.00003 5.9195 0.92489 11.34 2.7748 16.26 1.8498 4.9206 4.4396 9.1382 7.7693 12.653 3.3297 3.5147 7.3068 6.2525 11.931 8.2133 4.6246 1.9608 9.7116 2.9412 15.261 2.9412 6.3634 0 12.209-0.98041 17.537-2.9412 5.3275-1.9608 9.8966-4.7171 13.707-8.2688 3.8106-3.5517 6.7888-7.7878 8.9347-12.708 2.1457-4.9206 3.2186-10.304 3.2187-16.149z"
      />
      <path
          id="path4111"
          style="fill:#336699"
          d="m482.25 871.28c-0.88804 0.00006-1.665 0.703-2.3308 2.1088-2.8119 5.4756-5.7901 10.433-8.9347 14.873-3.1448 4.4397-6.3081 8.2133-9.4897 11.321-3.1818 3.1078-6.3266 5.4941-9.4342 7.1589-3.1078 1.6649-6.0306 2.4973-8.7683 2.4973-2.6638 0.00003-5.1241-0.57343-7.3809-1.7204-2.2569-1.1469-4.6987-3.3112-7.3254-6.493-2.6268-3.1817-5.6236-7.5843-8.9902-13.208-3.3668-5.6235-7.4919-12.949-12.375-21.976-0.81397-1.4798-1.6464-2.5712-2.4973-3.2742-0.85097-0.70288-1.6094-1.0544-2.2753-1.0544-0.96195 0.00007-1.8499 1.0175-2.6638 3.0522-0.81397 2.0349-1.5169 4.8836-2.1088 8.5463-0.59198 3.6627-1.0544 8.0654-1.3874 13.208-0.33301 5.1426-0.49949 10.822-0.49946 17.037-0.00003 3.6997 0.20345 7.3994 0.61045 11.099 0.40693 3.6997 0.61041 7.5104 0.61044 11.432-0.00003 1.3319-0.37 2.5713-1.1099 3.7182-0.73997 1.1469-1.7204 2.1458-2.9412 2.9968-1.2209 0.85092-2.6638 1.5354-4.3286 2.0533-1.6649 0.51796-3.4222 0.77693-5.2721 0.77694-3.6997-0.00001-6.3635-2.2198-7.9913-6.6594-1.6279-4.4396-2.4418-11.543-2.4418-21.31-0.00001-12.357 0.68443-23.585 2.0533-33.686 1.3689-10.1 3.3297-18.757 5.8825-25.972 2.5528-7.2143 5.5865-12.801 9.1012-16.76 3.5147-3.9586 7.4548-5.9379 11.82-5.938 3.8476 0.0001 7.5288 2.2014 11.044 6.6039 3.5146 4.4027 7.3068 11.525 11.377 21.366 1.6278 3.9957 3.3852 7.7324 5.272 11.21 1.8868 3.4778 3.7736 6.493 5.6605 9.0457 1.8868 2.5528 3.7181 4.5507 5.494 5.9935 1.7758 1.4429 3.3666 2.1644 4.7726 2.1643 1.4058 0.00005 2.7562-0.31442 4.0512-0.94342 1.2948-0.6289 2.7747-1.9978 4.4396-4.1066 1.6648-2.1088 3.6256-5.198 5.8825-9.2677 2.2567-4.0696 5.05-9.5081 8.3798-16.316 1.7758-3.5516 3.3666-6.5114 4.7726-8.8792 1.4058-2.3677 2.8116-4.273 4.2176-5.716 1.4058-1.4428 2.8856-2.4787 4.4396-3.1077 1.5538-0.62884 3.2926-0.94332 5.2166-0.94342 2.2937 0.0001 4.5505 1.221 6.7704 3.6627 2.2197 2.4419 4.384 5.6976 6.4929 9.7672 2.1087 4.0697 4.162 8.8053 6.16 14.207 1.9977 5.4016 3.94 11.062 5.827 16.982 1.8867 5.9196 3.7365 11.932 5.5495 18.036 1.8127 6.1045 3.57 11.895 5.272 17.37 0.4438 1.6279 0.75828 2.7563 0.94342 3.3852 0.18482 0.62896 0.27732 1.3874 0.27747 2.2753-0.00015 1.2579-0.38862 2.4973-1.1654 3.7182-0.77709 1.2209-1.7945 2.3123-3.0522 3.2742-1.258 0.96193-2.6824 1.7389-4.2731 2.3308-1.591 0.59195-3.1634 0.88792-4.7171 0.88792-2.072 0-3.6813-0.24048-4.8281-0.72144-1.147-0.48095-2.0535-1.3504-2.7193-2.6083-0.37011-0.66593-0.99906-2.4418-1.8868-5.3275-0.88806-2.8857-1.9425-6.308-3.1632-10.267-1.221-3.9586-2.5529-8.1578-3.9957-12.597-1.443-4.4396-2.8859-8.5277-4.3286-12.264-1.443-3.7366-2.8304-6.8444-4.1621-9.3232-1.332-2.4787-2.5159-3.7181-3.5517-3.7182z"
      />
      <path
          id="path4113"
          style="fill:#336699"
          d="m594.47 904.47c-0.222 0.00003-0.57347 0.037-1.0544 0.11099-0.48097 0.074-0.99893 0.14801-1.5539 0.22198-0.55496 0.074-1.0914 0.14801-1.6094 0.22198-0.51797 0.074-0.92493 0.11102-1.2209 0.11099-2.0718 0.00003-3.8847-0.8694-5.4385-2.6083-1.5539-1.7388-2.3308-4.0511-2.3308-6.9369 0-1.9238 0.62895-3.7736 1.8868-5.5495 1.2579-1.7758 3.2187-3.2557 5.8825-4.4396 0.81392-0.36992 1.4614-0.79539 1.9423-1.2764 0.48094-0.48091 0.72142-1.1654 0.72144-2.0533-0.00002-2.3677-0.0555-4.902-0.16649-7.6028-0.111-2.7007-0.27749-5.8639-0.49946-9.4897-0.074-0.73987-0.31448-1.4428-0.72143-2.1088-0.40698-0.66587-0.85094-1.4243-1.3319-2.2753-0.48097-0.85086-0.90644-1.7943-1.2764-2.8303-0.36998-1.0358-0.55497-2.3307-0.55496-3.8847-0.00001-1.4058 0.20348-3.0152 0.61045-4.8281 0.40696-1.8128 1.2579-3.5146 2.5528-5.1056 1.2949-1.5908 3.1077-2.9227 5.4385-3.9957 2.3308-1.0728 5.383-1.6093 9.1567-1.6094 1.5538 0.00009 2.8487 0.14808 3.8847 0.44396 1.0359 0.29607 1.9423 0.64753 2.7193 1.0544 0.77689 0.40705 1.4798 0.75852 2.1088 1.0544 0.62891 0.29606 1.2764 0.44405 1.9423 0.44396 1.1839 0.00009 3.5517-0.22189 7.1034-0.66594 3.5516-0.44387 7.8248-1.0728 12.819-1.8868 4.9945-0.81384 10.507-1.7388 16.538-2.7748 6.0304-1.0358 12.153-2.1642 18.369-3.3852 6.2154-1.2208 12.283-2.4602 18.202-3.7182 5.9194-1.2578 11.284-2.4787 16.094-3.6627 1.4798-0.36986 2.7746-0.55485 3.8847-0.55496 1.5537 0.00011 2.7931 0.35158 3.7182 1.0544 0.92478 0.70305 1.6092 1.5725 2.0533 2.6083 0.44382 1.036 0.7213 2.2014 0.83242 3.4962 0.11086 1.295 0.16635 2.4974 0.16649 3.6072-0.00014 1.9239-0.64758 3.7183-1.9423 5.383-1.295 1.665-3.4224 2.9783-6.382 3.9402-7.3255 2.1459-14.706 4.0142-22.143 5.605-7.4365 1.591-14.928 3.0338-22.476 4.3286-7.5474 1.295-15.132 2.4604-22.753 3.4962-7.6214 1.036-15.206 2.0719-22.753 3.1077-1.036 0.14806-1.8129 0.53653-2.3308 1.1654-0.518 0.62901-0.77697 1.4614-0.77694 2.4973v4.5506c-0.00003 1.258 0.037 2.5528 0.11099 3.8847 0.074 1.3319 0.24045 2.5528 0.49946 3.6627 0.25894 1.11 0.61041 2.0164 1.0544 2.7193 0.44392 0.70299 1.0359 1.0545 1.7758 1.0544 1.7758 0.00005 4.5321-0.36992 8.2688-1.1099 3.7366-0.73988 7.9543-1.6463 12.653-2.7193 4.6985-1.0728 9.6191-2.2568 14.762-3.5517 5.1425-1.2948 10.008-2.4787 14.595-3.5517 4.5875-1.0728 8.6202-1.9793 12.098-2.7193 3.4776-0.73988 5.9194-1.1098 7.3254-1.1099 2.0717 0.00006 3.6441 0.7585 4.7171 2.2753 1.0728 1.5169 1.7942 3.4223 2.1643 5.716-0.00012 0.37003 0.0369 0.703 0.11099 0.99892 0.0739 0.29603 0.11087 0.629 0.11099 0.99891-0.00012 2.1459-0.64756 4.1252-1.9423 5.938-1.295 1.8129-3.6073 3.1633-6.9369 4.0512-0.88803 0.29602-2.6639 0.75848-5.3275 1.3874-2.6639 0.62899-5.8086 1.3689-9.4342 2.2198-3.6258 0.85097-7.5474 1.7574-11.765 2.7193-4.2177 0.96195-8.3614 1.9054-12.431 2.8303-4.0697 0.92495-7.8619 1.8129-11.377 2.6638-3.5148 0.85096-6.382 1.5354-8.6018 2.0533-1.9979 0.51798-3.2003 0.92495-3.6072 1.2209-0.40701 0.29601-0.61049 0.66597-0.61044 1.1099 0.14794 1.6279 0.98037 3.1448 2.4973 4.5506 1.5168 1.4059 3.4407 2.7008 5.7715 3.8847s4.9575 2.2568 7.8803 3.2187c2.9227 0.96193 5.9564 1.7574 9.1012 2.3863 3.1447 0.62896 6.2339 1.1284 9.2677 1.4984 3.0337 0.36998 5.8454 0.55496 8.4353 0.55495 1.1098 0.00001 2.7007 0.00001 4.7726 0 2.0717 0.00001 4.347-0.0555 6.8259-0.16648 2.4787-0.11098 5.0315-0.27747 7.6584-0.49946 2.6267-0.22197 4.9945-0.53644 7.1034-0.94342 2.1087-0.40695 3.8476-0.92491 5.2166-1.5539 1.3688-0.62893 2.0532-1.3874 2.0533-2.2753-0.00012-0.81391-0.27759-1.6648-0.83243-2.5528-0.55507-0.8879-0.83255-1.8498-0.83243-2.8858-0.00012-1.4798 0.40685-2.9412 1.2209-4.3841 0.81381-1.4428 1.8682-2.7377 3.1632-3.8847 1.2948-1.1469 2.7746-2.0718 4.4396-2.7748 1.6647-0.7029 3.3481-1.0544 5.0501-1.0544 2.1457 0.00004 4.1065 0.4255 5.8825 1.2764 1.7757 0.85097 3.3111 1.9609 4.6061 3.3297 1.2947 1.3689 2.2936 2.9413 2.9967 4.7171 0.70279 1.7759 1.0543 3.5887 1.0544 5.4385-0.00015 4.8836-1.7945 9.1012-5.383 12.653-3.5888 3.5517-8.2689 6.493-14.04 8.8238-5.7716 2.3308-12.283 4.0697-19.534 5.2166-7.2515 1.1469-14.54 1.7204-21.865 1.7204-8.5834-0.00001-16.427-0.57346-23.53-1.7204-7.1034-1.1469-13.467-2.9782-19.09-5.494-5.6236-2.5158-10.47-5.79-14.54-9.8227-4.0697-4.0326-7.3994-8.9347-9.9892-14.706-0.88795-1.7018-1.8499-2.5528-2.8858-2.5528z"
      />
    </g
    >
    <g
        id="g4026"
        transform="matrix(.15655 0 0 .15671 338.21 606.8)"
      >
      <path
          id="path2241"
          style="color:#000000;fill:url(#linearGradient4037)"
          transform="matrix(2.1792 0 0 2.1203 -1501.2 1411)"
          d="m564.38 441.46c0 123.77-100.34 224.11-224.11 224.11s-224.11-100.34-224.11-224.11 100.34-224.11 224.11-224.11 224.11 100.34 224.11 224.11z"
      />
      <path
          id="path11159"
          style="color:#000000;fill:url(#radialGradient4039)"
          transform="matrix(2.1792 0 0 2.1203 -1501.2 1411)"
          d="m564.38 441.46c0 123.77-100.34 224.11-224.11 224.11s-224.11-100.34-224.11-224.11 100.34-224.11 224.11-224.11 224.11 100.34 224.11 224.11z"
      />
      <path
          id="path10070"
          style="color:#000000;fill:url(#radialGradient4041)"
          inkscape:connector-curvature="0"
          d="m-759.61 1904.5c-238.18 0-434.25 174.55-460.56 399.41 120.78-71.956 282.64-116.02 460.49-116.02s339.71 44.072 460.49 116.02c-26.304-224.86-222.24-399.41-460.43-399.41z"
      />
      <path
          id="path10090"
          style="color:#000000;fill-opacity:.40273;filter:url(#filter15171);fill:#ffffff"
          d="m-2222.3 2664.7c-109.3 0-211.74 84.152-207.34 188.38 55.426-33.937 125.7-54.719 207.31-54.719s151.89 20.786 207.31 54.719c5.0043-103-97.983-188.38-207.28-188.38z"
          sodipodi:nodetypes="ccscc"
          inkscape:connector-curvature="0"
          transform="matrix(2.1792 0 0 2.1203 4083.3 -3660.5)"
      />
      <path
          id="path12141"
          d="m-2396.8 2954.9c38.422 55.056 102.22 91.062 174.5 91.062 72.287 0 136.09-35.994 174.5-91.062-47.253 30.092-108.07 48.188-174.5 48.188-66.415 0-127.24-18.103-174.5-48.188z"
          style="color:#000000;filter:url(#filter14172);fill:url(#radialGradient4043)"
          inkscape:connector-curvature="0"
          transform="matrix(2.1792 0 0 2.1203 4083.3 -3660.5)"
      />
      <path
          id="path5176"
          inkscape:connector-curvature="0"
          sodipodi:nodetypes="cccccccccccccccccccccccccccccscccccccccsccsccccccccccc"
          style="fill-rule:evenodd;fill:#226e00"
          d="m-717.91 2787.4 29.157-18.052-13.89-14.135 39.071-78.707c-2.6083-22.831-0.39956-43.652 6.6265-64.474l-21.205-12.896-35.248-5.157-5.1481-27.179-20.415-15.994-1.4784-21.4-25.181-21.822 4.0269-23.211 19.294-5.8272-23.321-22.541 22.53-16.763 18.554-3.8693-16.541-18.622 25.818-20.061c4.5282-18.135 11.121-33.592 21.842-50.389l-0.6372-25.691 9.1753-0.6688 9.9653-19.343 21.944-3.1982 33.133 6.4472-0.6882 11.556 33.668-3.0999 42.563 17.333 17.229 15.474 27.831 1.29c15.361 11.522 25.516 21.537 26.246 26.067 0.7413 4.6025 7.4873 15.397 20.14 25.512l-6.6264 21.921 18.554 16.764 19.88 1.2891 9.2771 10.316h23.855l2.6508 15.474h18.554v27.078c-34.543 30.203-45.056 96.88-62.341 114.71-12.874 13.283-33.829 19.044-56.937 24.549l-13.355 30.997c-21.214 17.963-23.265 28.295-38.179 40.495-6.0444 4.9445-13.253 7.0675-21.944 9.5969l-4.7152-16.615 5.3014-7.7364-14.579 7.7364-7.952 16.764-1.3763 12.746-28.367 18.772-35.936 4.5867-3.3387 14.085c-23.253 9.3487-27.237 16.689-26.404 22.02l-41.085 3.8682z"
      />
      <path
          id="path6147"
          inkscape:connector-curvature="0"
          sodipodi:nodetypes="cccccccccccccccccccccccccccccccccccccccccccccccccccccccccccccccccccccccccccccccccc"
          style="fill-rule:evenodd;fill:#226e00"
          d="m-781.76 2337.5c-6.8818-14.73-29.616-20.901-41.29-32.138l-4.1291-24.105c-15.139 2.0087-28.214 2.6786-43.354-2.0085-1.6056-5.133-3.2116-10.266-4.8172-15.399l-26.15-14.73-16.516 14.06c-36.702-3.7942-33.49-16.292-75.01-41.512l-2.0642-28.122c-7.5699-17.631-13.075-35.262-28.903-50.885l0.6882-19.417-11.01-6.026v37.495l16.515 22.096 0.6884 18.747c-23.168-30.576-29.82-57.805-30.279-89.72-8.8965-21.163-7.5693-14.73-7.5693-14.73l0.6882-22.765c7.1102-27.675 16.286-43.298 44.042-70.973 4.3585-26.336 23.168-37.272 35.096-54.904 26.609-16.069 80.744-38.165 139.7-44.191l93.59-5.356 41.29 13.39 4.8171 17.409-14.451-9.3743-28.215-1.3388-6.1933-10.713-24.086 1.3397 0.68821 10.712-33.72 0.6699-29.591 13.392c1.6058 14.06 40.372 16.739 62.623 26.112l14.451 13.392-4.1289-17.409 9.634-9.3732-8.2578-8.7043-2.0644-15.4c25.921 1.5629 49.777 7.1417 55.053 16.739l19.268-3.3475c19.268 19.194 37.849 26.335 61.934 33.478 2.982 14.06 10.093 20.086 21.333 24.104l-14.451 4.0172-14.451-7.3647-1.3764-17.409-15.14 10.713-26.15-4.6872-13.075 6.6957 21.333-2.0085 12.387 29.46-30.279 4.6871-9.6342 10.043 2.7528 11.382-9.6342 1.3396-8.946 13.39-9.6344-6.0257-9.6342 5.3569 7.5696 19.416c-14.91 17.632-44.272 35.264-50.924 60.93l15.828 19.417-1.3764 22.765-10.323 1.3387-11.699-16.739-0.6882-20.086-33.72-18.079c-18.81 0.6699-31.426 2.6784-44.042 12.053l-30.279-4.0172-33.031 25.442 8.2578 12.722-11.011 27.452 10.323 26.782 17.204 16.739 32.344-6.6959 22.709-24.103 13.075 0.6699-1.3762 16.739-12.387 10.712v25.443l40.602-0.6689c1.6056 10.712 10.093 13.39 15.139 20.086l-5.505 34.816 12.387 14.06-3.4407 12.722z"
      />
      <path
          id="path7122"
          inkscape:connector-curvature="0"
          sodipodi:nodetypes="cssccccsccccccccccccccccccccscc"
          style="fill-rule:evenodd;fill:url(#radialGradient4045)"
          d="m-765.93 2093.1c-22.48-21.203-37.101-36.056-80.515-38.165-42.578-2.0358-68.474 22.954-105.29 38.165-24.666 10.191-59.64 16.962-79.138 15.399l-17.893-22.765c-6.4232-24.104 20.874-58.251 44.731-78.337l5.5053-25.443c14.222-17.409 29.001-33.644 48.859-44.191 23.73-12.602 51.612-19.416 90.837-28.121l57.117-6.6956-41.978 22.765 0.6881 14.06 52.3 17.409c12.157 12.052 22.938 22.095 36.472 24.103l19.268 0.6699-8.2579-23.435 15.14-8.0345-13.075-22.095 24.774 9.3732 24.086-0.6688 19.957 16.069 0.6881 7.3647-21.333 11.383-4.1288 17.408h24.086l2.0646 10.044-27.526 14.06-0.6882 16.739c-12.616 7.5886-28.371 5.4971-35.784 14.73-5.7346 7.1417-1.835 20.979-0.68811 27.452l-30.279 20.756z"
      />
      <path
          id="path9074"
          inkscape:connector-curvature="0"
          sodipodi:nodetypes="cccccccccccccccccccssccc"
          style="fill-rule:evenodd;fill:url(#radialGradient4047)"
          d="m-704.69 2558.4v-32.138l-35.784-21.426 13.763-13.392 1.3762-35.486 15.828 0.67-7.5697-47.538 14.451-6.6958 43.354-81.016 14.451 6.6959 55.053-6.6959 22.021 22.095 46.795 10.044 31.655 19.416 15.828 25.443 6.8815 32.139 42.666 25.442 21.333 1.3399 21.333 29.461c-31.885 29.236-66.634 62.732-114.23 77.667-26.856 8.4271-58.752 8.0272-83.267 20.756-23.197 12.046-41.29 29.015-59.87 53.565l-9.6342-35.486c-21.562-12.276-43.125-25.22-56.429-44.861z"
      />
    </g
    >
    <g
        id="text4065"
        style="fill:#339900"
        transform="scale(1.05 .95238)"
      >
      <path
          id="path4098"
          style="fill:#339900"
          d="m166.14 921.15c-7.8656-0.00001-15.1-1.335-21.702-4.005-6.6028-2.67-12.285-6.4043-17.048-11.203-4.7627-4.7987-8.479-10.517-11.149-17.156-2.67-6.6388-4.005-13.963-4.005-21.973-0.00001-4.3296 0.37884-8.4969 1.1365-12.502 0.75769-4.0049 1.786-7.7392 3.0849-11.203 0.57728-1.371 0.86593-2.3452 0.86594-2.9225-0.00001-0.72154-0.18041-1.4071-0.54121-2.0566-0.36082-0.64938-0.7577-1.3349-1.1907-2.0566-0.43298-0.72154-0.82986-1.4792-1.1907-2.2731-0.36082-0.7937-0.54122-1.6957-0.54121-2.706-0.00001-3.0307 1.7319-6.0073 5.1956-8.93 3.4637-2.9224 8.046-5.5202 13.747-7.7934 5.7007-2.273 12.159-4.1131 19.375-5.5203 7.2161-1.407 14.613-2.1106 22.19-2.1107 9.3087 0.0001 17.697 1.1908 25.166 3.572 7.4686 2.3814 13.819 5.791 19.051 10.229 5.2316 4.438 9.2546 9.832 12.069 16.182 2.8142 6.3503 4.2213 13.494 4.2214 21.432-0.00013 8.8759-1.7681 17.156-5.3039 24.842-3.536 7.6852-8.3889 14.342-14.559 19.971-6.1699 5.6286-13.44 10.066-21.811 13.314-8.3708 3.2472-17.391 4.8709-27.06 4.8709zm46.977-58.775c-0.00011-5.6285-0.97429-10.68-2.9225-15.154-1.9484-4.4739-4.7627-8.2444-8.4429-11.311-3.6803-3.0668-8.2084-5.412-13.584-7.0357-5.3761-1.6235-11.456-2.4354-18.239-2.4354-11.907 0.00008-20.873 3.0128-26.898 9.0382-6.0255 6.0255-9.0382 14.992-9.0382 26.898-0.00003 5.7729 0.90199 11.059 2.706 15.857 1.804 4.7988 4.3296 8.9119 7.5769 12.34 3.2472 3.4277 7.1259 6.0976 11.636 8.0099 4.51 1.9123 9.4711 2.8684 14.883 2.8684 6.2058 0.00001 11.907-0.95613 17.102-2.8684 5.1955-1.9123 9.6515-4.6003 13.368-8.064 3.7162-3.4637 6.6207-7.5949 8.7135-12.394 2.0926-4.7987 3.1389-10.048 3.139-15.749z"
      />
      <path
          id="path4100"
          style="fill:#339900"
          d="m250.24 820.27c-0.00001-1.0823 0.46904-2.1467 1.4072-3.1931 0.93808-1.0462 2.1648-1.9843 3.6802-2.8143 1.5154-0.82976 3.2292-1.5153 5.1415-2.0566 1.9122-0.54111 3.8426-0.81171 5.7909-0.81181 1.0824 0.0001 2.0024 0.28874 2.7602 0.86593 0.75766 0.57739 1.4252 1.6778 2.0025 3.3014 0.57726 1.6237 1.1004 3.8968 1.5695 6.8192 0.46902 2.9226 0.92002 6.7291 1.353 11.42 0.28861 1.4433 0.55921 2.5438 0.81181 3.3014 0.25253 0.75776 0.59529 1.1366 1.0283 1.1365 0.64941 0.00007 1.2989-1.1184 1.9484-3.3555 5.2677-15.226 12.881-22.839 22.839-22.839 4.6183 0.0001 8.8216 1.4433 12.61 4.3297 3.7884 2.8865 7.3243 7.595 10.608 14.126 3.2832 6.5307 6.4042 15.118 9.3629 25.762 2.9585 10.644 5.9171 23.759 8.8758 39.346 0.14422 0.79379 0.25246 1.5154 0.32472 2.1648 0.0721 0.64946 0.10814 1.2628 0.10824 1.8401-0.0001 1.6597-0.37894 3.0849-1.1365 4.2756-0.75779 1.1907-1.75 2.1648-2.9766 2.9225-1.2268 0.75769-2.5979 1.335-4.1132 1.7319-1.5155 0.39688-3.0309 0.59533-4.5462 0.59533-3.0309 0-5.2137-0.32473-6.5486-0.97418-1.3351-0.64945-2.183-1.8762-2.5437-3.6802-2.0928-10.968-4.1313-20.71-6.1157-29.225-1.9845-8.515-3.9329-15.677-5.8451-21.486-1.9123-5.8089-3.8066-10.229-5.6827-13.26-1.8762-3.0307-3.7524-4.5461-5.6286-4.5462-1.8762 0.00007-3.6262 1.1727-5.2497 3.5179-1.6237 2.3453-3.1932 6.0075-4.7085 10.987-1.5154 4.9792-2.9767 11.293-4.3838 18.942-1.4072 7.6491-2.7602 16.778-4.0591 27.385-0.36084 2.8865-1.8041 5.1956-4.3297 6.9275-2.5257 1.7319-5.7368 2.5978-9.6335 2.5978-2.5978 0-4.5823-0.54121-5.9533-1.6236-1.3711-1.0824-2.1288-2.5617-2.2731-4.4379-0.64947-15.01-1.353-27.367-2.1107-37.073-0.75771-9.7056-1.4613-17.499-2.1107-23.38-0.64946-5.8811-1.1907-10.265-1.6236-13.151-0.43298-2.8864-0.64946-5.0151-0.64945-6.3863z"
      />
      <path
          id="path4102"
          style="fill:#339900"
          d="m445.72 883.91c2.0926-1.804 4.1492-2.706 6.1698-2.706 1.1545 0.00003 2.2008 0.28867 3.139 0.86594 0.93799 0.57731 1.9843 1.4793 3.139 2.706 1.0823 1.6597 1.858 3.0128 2.3272 4.0591 0.46893 1.0464 0.70346 2.0747 0.70357 3.0849-0.00011 2.1648-1.0825 4.2214-3.2472 6.1698-3.4639 2.8864-7.2162 5.4662-11.257 7.7393-4.0411 2.2731-8.2626 4.2034-12.664 5.7909-4.4019 1.5875-8.9481 2.7962-13.638 3.6261-4.6906 0.82984-9.345 1.2448-13.963 1.2448-5.8451-0.00001-11.329-0.73966-16.453-2.219-5.1235-1.4793-9.6877-3.59-13.693-6.3322-4.005-2.7421-7.3785-6.0435-10.121-9.9041-2.7422-3.8606-4.6905-8.2083-5.8451-13.043-0.64947-2.0205-1.2448-3.3374-1.786-3.9508-0.54123-0.61335-1.4252-0.92003-2.6519-0.92006-2.67 0.00003-4.7266-0.64942-6.1698-1.9484-1.4432-1.2989-2.1648-3.1751-2.1648-5.6286 0-1.0102 0.0722-1.6597 0.21649-1.9484l0.21648-2.1648c0.3608-2.5978 1.0644-4.474 2.1107-5.6286 1.0463-1.1545 2.688-1.7318 4.925-1.7319h1.6236c3.0308 0.00004 5.1595-1.4071 6.3863-4.2214 2.237-4.9791 5.0874-9.5252 8.5511-13.638 3.4637-4.1131 7.3604-7.631 11.69-10.554 4.3296-2.9224 8.966-5.1955 13.909-6.8192 4.943-1.6235 9.9762-2.4354 15.1-2.4354 5.3399 0.00008 10.337 0.77582 14.992 2.3272 4.6543 1.5516 8.7134 3.6983 12.177 6.4404 3.4636 2.7422 6.1877 5.9534 8.1723 9.6335 1.9843 3.6803 2.9766 7.6492 2.9767 11.907-0.00011 2.9587-0.5774 5.6647-1.7319 8.1181-1.1547 2.4535-2.8144 4.6003-4.9791 6.4404-2.1649 1.8402-4.7808 3.3375-7.8475 4.492-3.0669 1.1546-6.5487 1.9123-10.445 2.2731l-37.56 3.7885c-1.4433 0.00003-2.6159 0.36083-3.5179 1.0824-0.90205 0.72164-1.3531 1.6958-1.353 2.9225-0.00004 1.8762 0.70353 3.6802 2.1107 5.4121 1.4071 1.7319 3.2833 3.2653 5.6286 4.6003 2.3452 1.335 5.0512 2.3994 8.1181 3.1931 3.0668 0.79378 6.2238 1.1907 9.4712 1.1907 3.1029 0.00001 6.296-0.30667 9.5794-0.92006 3.2833-0.61335 6.5305-1.4973 9.7418-2.6519 3.2111-1.1546 6.3321-2.5437 9.3629-4.1673 3.0307-1.6236 5.881-3.4818 8.5511-5.5745zm-24.13-27.92c1.0823-0.21643 2.0204-0.7396 2.8143-1.5695 0.79369-0.8298 1.1906-1.8581 1.1907-3.0849-0.00008-1.0824-0.39697-2.0926-1.1907-3.0308-0.79385-0.93803-1.8763-1.7859-3.2473-2.5437-1.3711-0.75763-2.9587-1.353-4.7626-1.786-1.8041-0.4329-3.7164-0.64939-5.7368-0.64945-2.9587 0.00006-5.9894 0.43303-9.0923 1.2989-3.103 0.866-5.9173 2.0025-8.4429 3.4096-2.5257 1.4072-4.5823 2.9587-6.1698 4.6544-1.5876 1.6958-2.3814 3.3736-2.3813 5.0332-0.00004 1.6598 1.0102 2.4896 3.0308 2.4896 1.2267 0.00005 3.2111-0.14427 5.9533-0.43296 2.7421-0.2886 5.7728-0.63137 9.0923-1.0283 3.3194-0.39684 6.6748-0.84785 10.066-1.353 3.3915-0.50507 6.3501-0.97412 8.8758-1.4071z"
      />
    </g
    >
  </g
  >
  <metadata
    >
    <rdf:RDF
      >
      <cc:Work
        >
        <dc:format
          >image/svg+xml</dc:format
        >
        <dc:type
            rdf:resource="http://purl.org/dc/dcmitype/StillImage"
        />
        <cc:license
            rdf:resource="http://creativecommons.org/licenses/publicdomain/"
        />
        <dc:publisher
          >
          <cc:Agent
              rdf:about="http://openclipart.org/"
            >
            <dc:title
              >Openclipart</dc:title
            >
          </cc:Agent
          >
        </dc:publisher
        >
        <dc:title
          >One home</dc:title
        >
        <dc:date
          >2012-04-08T05:27:48</dc:date
        >
        <dc:description
          >earth day series</dc:description
        >
        <dc:source
          >https://openclipart.org/detail/169401/one-home-by-netalloy</dc:source
        >
        <dc:creator
          >
          <cc:Agent
            >
            <dc:title
              >netalloy</dc:title
            >
          </cc:Agent
          >
        </dc:creator
        >
        <dc:subject
          >
          <rdf:Bag
            >
            <rdf:li
              >earth day</rdf:li
            >
            <rdf:li
              >holiday</rdf:li
            >
            <rdf:li
              >Earth</rdf:li
            >
            <rdf:li
              >environmentalists</rdf:li
            >
          </rdf:Bag
          >
        </dc:subject
        >
      </cc:Work
      >
      <cc:License
          rdf:about="http://creativecommons.org/licenses/publicdomain/"
        >
        <cc:permits
            rdf:resource="http://creativecommons.org/ns#Reproduction"
        />
        <cc:permits
            rdf:resource="http://creativecommons.org/ns#Distribution"
        />
        <cc:permits
            rdf:resource="http://creativecommons.org/ns#DerivativeWorks"
        />
      </cc:License
      >
    </rdf:RDF
    >
  </metadata
  >
</svg
>
