<?xml version="1.0" encoding="UTF-8" standalone="no"?>
<!-- Created with Inkscape (http://www.inkscape.org/) -->

<svg
   width="210mm"
   height="297mm"
   viewBox="0 0 210 297"
   version="1.1"
   id="svg580"
   sodipodi:docname="dibujo.svg"
   inkscape:version="1.1.1 (3bf5ae0d25, 2021-09-20)"
   xmlns:inkscape="http://www.inkscape.org/namespaces/inkscape"
   xmlns:sodipodi="http://sodipodi.sourceforge.net/DTD/sodipodi-0.dtd"
   xmlns="http://www.w3.org/2000/svg"
   xmlns:svg="http://www.w3.org/2000/svg">
  <sodipodi:namedview
     id="namedview17"
     pagecolor="#ffffff"
     bordercolor="#666666"
     borderopacity="1.0"
     inkscape:pageshadow="2"
     inkscape:pageopacity="0.0"
     inkscape:pagecheckerboard="0"
     inkscape:document-units="mm"
     showgrid="false"
     inkscape:zoom="0.46324355"
     inkscape:cx="397.19927"
     inkscape:cy="560.1805"
     inkscape:window-width="1366"
     inkscape:window-height="705"
     inkscape:window-x="-8"
     inkscape:window-y="-8"
     inkscape:window-maximized="1"
     inkscape:current-layer="layer1" />
  <defs
     id="defs577">
    <clipPath
       clipPathUnits="userSpaceOnUse"
       id="clipPath889">
      <g
         id="use891">
        <rect
           style="fill:#ffffff;stroke-width:0.264583"
           id="rect916"
           width="1.195171"
           height="4.1830988"
           x="46.611668"
           y="53.185108" />
        <rect
           style="fill:#ffffff;stroke-width:0.264583"
           id="rect918"
           width="129.67606"
           height="83.064384"
           x="47.806839"
           y="43.026157" />
        <rect
           style="fill:#00ff00;stroke-width:0.264583"
           id="rect920"
           width="120.11469"
           height="72.905434"
           x="47.806839"
           y="53.185108" />
        <ellipse
           style="fill:#aa0000;stroke-width:0.264583"
           id="ellipse922"
           cx="78.283699"
           cy="92.028168"
           rx="14.342052"
           ry="13.146881" />
        <path
           style="fill:#aa0000"
           id="path924"
           d="m 555.61333,383.96045 -33.60379,-9.62233 -27.29599,21.16878 -1.23276,-34.93258 -28.56762,-19.41851 32.84191,-11.96718 9.64021,-33.17008 21.53018,27.53645 34.52561,-1.08172 -19.53553,28.98564 z"
           transform="scale(0.26458333)" />
      </g>
    </clipPath>
  </defs>
  <g
     id="layer1">
    <rect
       style="fill:#aa0000;stroke-width:0.264583"
       id="box"
       width="195.41045"
       height="106.37022"
       x="7.1710258"
       y="6.5734406" />
    <path
       style="fill:#ff7f2a;stroke-width:0.264583"
       id="eye1"
       d="M 97.187117,46.366041 A 31.672033,32.867203 0 0 1 84.419814,80.762798 31.672033,32.867203 0 0 1 48.902772,81.225657 31.672033,32.867203 0 0 1 35.307123,47.172463" />
    <path
       style="fill:#ff7f2a;stroke-width:0.264583"
       id="eye2"
       d="M 190.03219,47.806839 A 32.269615,35.855129 0 0 1 158.07149,83.660325 32.269615,35.855129 0 0 1 125.49887,48.493299" />
    <path
       style="fill:#000080"
       id="star2"
       d="m 293.61682,295.87542 -39.45053,-18.25979 -38.04622,21.02974 5.1752,-43.16227 -31.7574,-29.68556 42.64899,-8.41597 18.41906,-39.37642 21.18333,37.96092 43.14101,5.34959 -29.55698,31.87711 z"
       transform="scale(0.26458333)" />
    <path
       style="fill:#000080"
       id="star1"
       d="m 630.14686,295.87542 -35.75363,-21.15582 -38.62184,19.62968 9.0719,-40.54123 -30.60374,-30.66565 41.36037,-3.90003 19.70769,-38.58209 16.49021,38.13087 42.78377,6.8206 -31.16886,27.46621 z"
       transform="scale(0.26458333)" />
  </g>
</svg>
